----- Personality CAFEBOSE generated by A.I. V3.0 at 04:56 pm on 31-May-00
 
       1 CLEAR SCREEN
       2 CONTROL LINE 1 OFF
       3 CONTROL LINE 2 ON
       4 CONTROL LINE 3 ON
       5 CONTROL LINE 4 ON
       6 CONTROL LINE 5 ON
       7 CONTROL LINE 6 ON
       8         LED 2 OFF
       9         LED 3 OFF
      10         MOVE "N" to MODORELOJ
      11         MOVE "XXXX" to LASTAUTO
      12         MOVE 0 to CERO
      13         MOVE 1 to UNO
      14         MOVE CERO to VALIDAR
      15         MOVE "" to ULTIMO
      16         MOVE CERO to ACEPTADAS
      17         MOVE CERO to RECHAZADAS
      18         MOVE UNO to TIPOFOOD
      19    CHARACTER of 10 into MANUAL
      20    CHARACTER of 13 into CRLF
      21       APPEND MANUAL to CRLF
      22         MOVE "NOMBRE" to EMPRESA
      23   SEQ LOOKUP in "L-ALARMA", 1 using EMPRESA into OUT
      24         MOVE "CAFETERIA" to EMPRESA
      25         IF OUT starts with "0000" THEN GOTO Restart(29)
      26       MIDDLE 1140 characters of OUT into OUT
      27         MOVE OUT to EMPRESA
      28         GOTO Restart(29)
      29 Restart:           
      30         MOVE "00" to NUMCOMIDAS
      31         MOVE "" to ULTIMO
      32         MOVE CERO to SUPERVISA
      33         IF MODORELOJ equals "N" THEN GOTO ModoNormal(35)
      34         IF MODORELOJ equals "P" THEN GOTO ModoProhibe(37)
      35 ModoNormal:           
      36         GOTO UpdateTime(40)
      37 ModoProhibe:           
      38      DISPLAY 1 9 from "PROHIBIDO"
      39         GOTO UpdateTime(40)
      40 UpdateTime:           
      41      DISPLAY 12 5 from TIME
      42      DISPLAY 18 23 from EMPRESA
      43     TRANSFER to HORA 1 4 from TIME
      44         IF LASTAUTO equals HORA THEN GOTO NoHuboAlarma(71)
      45   SEQ LOOKUP in "L-ALARMA", 1 using HORA into OUT
      46         IF OUT starts with "0000" THEN GOTO NoHuboAlarma(71)
      47         MOVE HORA to LASTAUTO
      48       MIDDLE 920 characters of OUT into OUT
      49         IF OUT starts with "N" THEN GOTO AutoNormal(56)
      50         IF OUT starts with "P" THEN GOTO AutoProhibe(61)
      51         IF OUT is between 0 and 9 THEN GOTO TipoComida(65)
      52        SOUND 300, 1
      53      DISPLAY 41 13 from "ERROR: ALARMA"
      54        PAUSE 1
      55         GOTO Restart(29)
      56 AutoNormal:           
      57        SOUND 1000, .25
      58 CLEAR SCREEN
      59         MOVE "N" to MODORELOJ
      60         GOTO Restart(29)
      61 AutoProhibe:           
      62        SOUND 1000, .25
      63         MOVE "P" to MODORELOJ
      64         GOTO Restart(29)
      65 TipoComida:           
      66        SOUND 1000, .25
      67         MOVE OUT to TIPOFOOD
      68      DISPLAY w/CLR2  41 6 from "TIPO ="
      69      DISPLAY 48 1 from TIPOFOOD
      70         GOTO Restart(29)
      71 NoHuboAlarma:           
      72         READ BADGE COM to IN  on Timeout 3000 goto NoHuboBadge(77)
      73         ON Badge INPUT GOTO AskForBadge(81)
      74         ON Comm port INPUT GOTO AskForBadge(81)
      75        SOUND 2000, .15
      76         GOTO UpdateTime(40)
      77 NoHuboBadge:           
      78         IF NUMCOMIDAS equals "00" THEN GOTO Restart(29)
      79        GOSUB HayComidas(193)
      80         GOTO Restart(29)
      81 AskForBadge:           
      82         MOVE IN to CREDENCIAL
      83         IF CREDENCIAL starts with "CAFE" THEN GOTO Operador(126)
      84         IF CREDENCIAL equals "012345B" THEN GOTO Operador(126)
      85       LENGTH of CREDENCIAL into TAMANO
      86         IF TAMANO equals 7 THEN GOTO NormalSize(90)
      87         MOVE CERO to MANUAL
      88       APPEND CREDENCIAL to MANUAL
      89         MOVE MANUAL to CREDENCIAL
      90 NormalSize:           
      91       MIDDLE 22 characters of CREDENCIAL into INVITA
      92         IF INVITA equals "IV" THEN GOTO Invitador(103)
      93         IF CREDENCIAL equals ULTIMO THEN GOTO Repetido(100)
      94         IF NUMCOMIDAS equals "00" THEN GOTO NoRepetido(108)
      95         MOVE CREDENCIAL to IN
      96         MOVE ULTIMO to CREDENCIAL
      97        GOSUB HayComidas(193)
      98         MOVE IN to CREDENCIAL
      99         GOTO NoRepetido(108)
     100 Repetido:           
     101         ADD 1 to NUMCOMIDAS
     102         GOTO RevisaZ(112)
     103 Invitador:           
     104         MOVE UNO to IN
     105      DISPLAY w/CLR2  41 8 from "Comidas:"
     106     READ KBD to IN  50 2 Numeric AutoExit Default Zerofill  on Timeout 1000 goto OpCancelada(290)
     107         MOVE IN to NUMCOMIDAS
     108 NoRepetido:           
     109         MOVE CREDENCIAL to ULTIMO
     110         MOVE "01" to NUMCOMIDAS
     111         GOTO RevisaZ(112)
     112 RevisaZ:           
     113         IF CREDENCIAL ends with "Z" THEN GOTO Supervisor(123)
     114         IF CREDENCIAL ends with "Y" THEN GOTO Supervisor(123)
     115         IF CREDENCIAL starts with 999999 THEN GOTO AutoCredencial(118)
     116         IF MODORELOJ equals "P" THEN GOTO Rechazada(164)
     117         GOTO SendBadge(177)
     118 AutoCredencial:           
     119        RIGHT 1 characters of CREDENCIAL into OUT
     120         IF OUT is between 0 and 9 THEN GOTO TipoComida(65)
     121        RIGHT 1 characters of CREDENCIAL into MODORELOJ
     122         GOTO Restart(29)
     123 Supervisor:           
     124         MOVE UNO to SUPERVISA
     125         GOTO SendBadge(177)
     126 Operador:           
     127      DISPLAY w/CLR1  1 16 from "F1=CANCEL,F2=MAN"
     128      DISPLAY w/CLR2  41 16 from "F3=CORTE, F4=VAL"
     129     READ KBD to IN  0 0 Default  on Timeout 1500 goto OpCancelada(290)
     130         ON F1 KEY GOTO Cancelar(139)
     131         ON F2 KEY GOTO PrepManual(136)
     132         ON F3 KEY GOTO Corte(143)
     133         ON F4 KEY GOTO Validacion(258)
     134        SOUND 300, 1
     135         GOTO Restart(29)
     136 PrepManual:           
     137         MOVE "* MANUAL *" to LETRERO
     138         GOTO RegManual(270)
     139 Cancelar:           
     140         MOVE -1 to NUMCOMIDAS
     141         MOVE "* CANCELAR *" to LETRERO
     142         GOTO RegManual(270)
     143 Corte:           
     144 CLEAR SCREEN
     145         MOVE "* CORTE *" to MANUAL
     146      DISPLAY 1 16 from MANUAL
     147       APPEND CRLF to MANUAL
     148         SEND MANUAL to AUX port
     149         MOVE RECHAZADAS to LETRERO
     150       APPEND " : RECHAZADAS" to LETRERO
     151        GOSUB DlgAlerta(253)
     152       APPEND CRLF to LETRERO
     153         SEND LETRERO to AUX port
     154        PAUSE 4
     155         MOVE ACEPTADAS to LETRERO
     156       APPEND " : ACEPTADAS" to LETRERO
     157        GOSUB DlgAlerta(253)
     158       APPEND CRLF to LETRERO
     159         SEND LETRERO to AUX port
     160        PAUSE 4
     161         MOVE CERO to ACEPTADAS
     162         MOVE CERO to RECHAZADAS
     163         GOTO Restart(29)
     164 Rechazada:           
     165         LED 3 ON
     166 CONTROL LINE 3 OFF
     167        SOUND 3000, .15
     168        PAUSE .2
     169        SOUND 3000, .15
     170        PAUSE .2
     171        SOUND 3000, .15
     172        PAUSE .2
     173        SOUND 3000, .3
     174         LED 3 OFF
     175 CONTROL LINE 3 ON
     176         GOTO UpdateTime(40)
     177 SendBadge:           
     178 CLEAR SCREEN
     179      DISPLAY 1 6 from CREDENCIAL
     180      DISPLAY 1 1 from "#"
     181         GOTO NoHuboAlarma(71)
     182         MOVE TIPOFOOD to IN
     183         IF TIPOFOOD is greater than 0 THEN GOTO HayTipo(188)
     184         MOVE UNO to IN
     185      DISPLAY w/CLR2  41 5 from "Tipo:"
     186     READ KBD to IN  47 1 Numeric AutoExit Default  on Timeout 1000 goto OpCancelada(290)
     187         IF IN is not between 1 and 9 THEN GOTO SendBadge(177)
     188 HayTipo:           
     189         IF TIPOFOOD is not equal to 9 THEN GOTO HayComidas(193)
     190      DISPLAY 41 7 from "Precio:"
     191     READ KBD to NUMCOMIDAS  49 2 Numeric AutoExit Default Zerofill  on Timeout 1000 goto OpCancelada(290)
     192         IF NUMCOMIDAS is less than CERO THEN GOTO HayTipo(188)
     193 HayComidas:           
     194         MOVE CERO to STATUSVALIDA
     195         MOVE "#" to NET
     196       APPEND CREDENCIAL to NET
     197         MOVE "" to MANUAL
     198     TRANSFER to MANUAL 1 4 from DATE
     199       APPEND MANUAL to NET
     200     TRANSFER to ULTIMAHORA 1 4 from TIME
     201       APPEND ULTIMAHORA to NET
     202       APPEND NUMCOMIDAS to NET
     203       APPEND TIPOFOOD to NET
     204         MOVE TIPOFOOD to OUT
     205       MIDDLE 215 characters of NET into LASTRECORD
     206         SEND NET to host data QUEUE
     207       RETURN from Gosub
     208 EsperaRespuesta:           
     209    READ HOST to IN  on Timeout 500 goto NoHuboRespuesta(217)
     210         IF IN starts with LASTRECORD THEN GOTO RespuestaOK(212)
     211         GOTO EsperaRespuesta(208)
     212 RespuestaOK:           
     213       MIDDLE 161 characters of IN into STATUSVALIDA
     214       MIDDLE 1740 characters of IN into RESPUESTA
     215         IF STATUSVALIDA equals 2 THEN GOTO AceptaComida(232)
     216         GOTO RechazaComida(221)
     217 NoHuboRespuesta:           
     218         MOVE UNO to STATUSVALIDA
     219         MOVE "NO RESPONDE" to RESPUESTA
     220         GOTO AceptaComida(232)
     221 RechazaComida:           
     222         MOVE 3 to STATUSVALIDA
     223         LED 3 ON
     224 CONTROL LINE 3 OFF
     225         MOVE RESPUESTA to LETRERO
     226        GOSUB DlgAlerta(253)
     227         ADD NUMCOMIDAS to RECHAZADAS
     228 CONTROL LINE 3 ON
     229        GOSUB IMPRIME(280)
     230         LED 3 OFF
     231         GOTO Restart(29)
     232 AceptaComida:           
     233         LED 2 ON
     234 CONTROL LINE 2 OFF
     235 CONTROL LINE 5 OFF
     236 CONTROL LINE 6 OFF
     237      DISPLAY w/CLR2  41 40 from RESPUESTA
     238         ADD NUMCOMIDAS to ACEPTADAS
     239        GOSUB IMPRIME(280)
     240        PAUSE .25
     241         LED 2 OFF
     242 CONTROL LINE 2 ON
     243 CONTROL LINE 5 ON
     244 CONTROL LINE 6 ON
     245         GOTO Restart(29)
     246 PausaDecimas:           
     247         IF LEN_PAUSA is less than 1 THEN GOTO FinPausa(251)
     248        PAUSE .1
     249     SUBTRACT 1 from LEN_PAUSA
     250         GOTO PausaDecimas(246)
     251 FinPausa:           
     252       RETURN from Gosub
     253 DlgAlerta:           
     254      DISPLAY w/CLR2  41 40 from LETRERO
     255        SOUND 300, 1
     256        PAUSE 1.5
     257       RETURN from Gosub
     258 Validacion:           
     259      DISPLAY w/CLR1  1 7 from "VALIDAR"
     260         IF VALIDAR equals 1 THEN GOTO NoValidar(265)
     261         MOVE UNO to VALIDAR
     262         MOVE "* ACTIVADA *" to LETRERO
     263        GOSUB DlgAlerta(253)
     264         GOTO Restart(29)
     265 NoValidar:           
     266         MOVE CERO to VALIDAR
     267         MOVE "* CANCELADA *" to LETRERO
     268        GOSUB DlgAlerta(253)
     269         GOTO Restart(29)
     270 RegManual:           
     271 CLEAR SCREEN
     272      DISPLAY 1 2 from "#:"
     273      DISPLAY 41 40 from LETRERO
     274         MOVE CERO to MANUAL
     275     READ KBD BADGE to MANUAL  3 6 Numeric AutoExit Zerofill  on Timeout 1500 goto OpCancelada(290)
     276         MOVE "" to CREDENCIAL
     277     TRANSFER to CREDENCIAL 1 6 from MANUAL
     278       APPEND "+" to CREDENCIAL
     279         GOTO SendBadge(177)
     280 Imprime:           
     281       APPEND HORA to MANUAL comma separated
     282       APPEND CREDENCIAL to MANUAL comma separated
     283       APPEND NUMCOMIDAS to MANUAL comma separated
     284       APPEND OUT to MANUAL comma separated
     285       APPEND " : " to MANUAL
     286       APPEND RESPUESTA to MANUAL
     287       APPEND CRLF to MANUAL
     288         SEND MANUAL to AUX port
     289       RETURN from Gosub
     290 OpCancelada:           
     291         MOVE "OP. CANCELADA" to LETRERO
     292        GOSUB DlgAlerta(253)
     293         GOTO Restart(29)
 
- Generation completed with no errors.
- Basic file CAFEBOSE.BAS contains 1091 lines.
- LXB compilation.

NO ERRORS DETECTED
 
- CAFEBOSE.LXE can be downloaded to LINX terminals
