----- Personality TRESS2_1 generated by A.I. V3.0 at 01:05 pm on 22-Mar-97
 
       1 '----- Sistemas TRESS / Linx -----
       2 'Created by Edgar Mora - Noviembre '94
       3 CONTROL LINE 1 OFF
       4 CONTROL LINE 2 ON
       5 CONTROL LINE 3 ON
       6 CONTROL LINE 4 ON
       7         LED 2 OFF
       8         LED 3 OFF
       9         MOVE "A" to MODORELOJ
      10         MOVE "XXXX" to LASTAUTO
      11         MOVE 0 to VALIDAR
      12         MOVE "" to ULTIMO
      13         MOVE "NOMBRE" to EMPRESA
      14   SEQ LOOKUP in "L-ALARMA", 1 using EMPRESA into OUT
      15         IF OUT starts with "0000" THEN GOTO NoHuboNombre(19)
      16       MIDDLE 1140 characters of OUT into OUT
      17         MOVE OUT to EMPRESA
      18         GOTO Restart(22)
      19 NoHuboNombre:           
      20         MOVE "          Sistemas TRESS, S.C." to EMPRESA
      21         GOTO Restart(22)
      22 Restart:           
      23 CLEAR SCREEN
      24         MOVE 0 to SUPERVISA
      25         IF MODORELOJ equals "A" THEN GOTO ModoNormal(30)
      26         IF MODORELOJ equals "N" THEN GOTO ModoNormal(30)
      27         IF MODORELOJ equals "E" THEN GOTO ModoEntrada(33)
      28         IF MODORELOJ equals "S" THEN GOTO ModoSalida(37)
      29         IF MODORELOJ equals "P" THEN GOTO ModoProhibe(41)
      30 ModoNormal:           
      31      DISPLAY 1 40 from EMPRESA
      32         GOTO UpdateTime(44)
      33 ModoEntrada:           
      34      DISPLAY 6 29 from "RELOJ RAPIDO: *** ENTRADA ***"
      35         MOVE 1 to OP
      36         GOTO UpdateTime(44)
      37 ModoSalida:           
      38      DISPLAY 7 28 from "RELOJ RAPIDO: *** SALIDA ***"
      39         MOVE 0 to OP
      40         GOTO UpdateTime(44)
      41 ModoProhibe:           
      42      DISPLAY 5 32 from "*** NO ESTA PERMITIDO CHECAR ***"
      43         GOTO UpdateTime(44)
      44 UpdateTime:           
      45      DISPLAY w/CLR2  41 9 from TIME
      46      DISPLAY 72 9 from DATE
      47     TRANSFER to HORA 1 4 from TIME
      48         IF LASTAUTO equals HORA THEN GOTO NoHuboAlarma(99)
      49   SEQ LOOKUP in "L-ALARMA", 1 using HORA into OUT
      50         IF OUT starts with "0000" THEN GOTO NoHuboAlarma(99)
      51         MOVE HORA to LASTAUTO
      52       MIDDLE 920 characters of OUT into OUT
      53         IF OUT starts with "E" THEN GOTO AutoEntrada(67)
      54         IF OUT starts with "S" THEN GOTO AutoSalida(71)
      55         IF OUT starts with "N" THEN GOTO AutoNormal(75)
      56         IF OUT starts with "P" THEN GOTO AutoProhibe(79)
      57         IF OUT starts with "R" THEN GOTO AutoRelay(83)
      58         IF OUT starts with "A" THEN GOTO AutoAuto(63)
      59        SOUND 300, 1
      60      DISPLAY 48 23 from "ERROR EN ARCHIVO ALARMA"
      61        PAUSE 1
      62         GOTO Restart(22)
      63 AutoAuto:           
      64        SOUND 1000, .25
      65         MOVE "A" to MODORELOJ
      66         GOTO Restart(22)
      67 AutoEntrada:           
      68        SOUND 1000, .25
      69         MOVE "E" to MODORELOJ
      70         GOTO Restart(22)
      71 AutoSalida:           
      72        SOUND 1000, .25
      73         MOVE "S" to MODORELOJ
      74         GOTO Restart(22)
      75 AutoNormal:           
      76        SOUND 1000, .25
      77         MOVE "N" to MODORELOJ
      78         GOTO Restart(22)
      79 AutoProhibe:           
      80        SOUND 1000, .25
      81         MOVE "P" to MODORELOJ
      82         GOTO Restart(22)
      83 AutoRelay:           
      84       MIDDLE 32 characters of OUT into NUM_RINGS
      85       MIDDLE 52 characters of OUT into DURACION
      86       MIDDLE 72 characters of OUT into ESPACIO
      87 CicloRelay:           
      88         IF NUM_RINGS is less than 1 THEN GOTO Restart(22)
      89 CONTROL LINE 1 ON
      90 CONTROL LINE 4 OFF
      91         MOVE DURACION to LEN_PAUSA
      92        GOSUB PausaDecimas(226)
      93 CONTROL LINE 1 OFF
      94 CONTROL LINE 4 ON
      95         MOVE ESPACIO to LEN_PAUSA
      96        GOSUB PausaDecimas(226)
      97     SUBTRACT 1 from NUM_RINGS
      98         GOTO CicloRelay(87)
      99 NoHuboAlarma:           
     100     READ KBD BADGE to IN  0 0  on Timeout 3000 goto UpdateTime(44)
     101         ON Badge INPUT GOTO AskForBadge(104)
     102        SOUND 2000, .15
     103         GOTO UpdateTime(44)
     104 AskForBadge:           
     105         MOVE 2 to OPGAFETE
     106         MOVE IN to CREDENCIAL
     107       LENGTH of CREDENCIAL into TAMANO
     108         IF TAMANO equals 8 THEN GOTO IncluyeOp(114)
     109         IF TAMANO equals 7 THEN GOTO NormalSize(117)
     110         MOVE 0 to MANUAL
     111       APPEND CREDENCIAL to MANUAL
     112         MOVE MANUAL to CREDENCIAL
     113         GOTO NormalSize(117)
     114 IncluyeOp:           
     115        RIGHT 1 characters of CREDENCIAL into OPGAFETE
     116         LEFT 7 characters of CREDENCIAL into CREDENCIAL
     117 NormalSize:           
     118         IF CREDENCIAL is not equal to ULTIMO THEN GOTO NoRepetido(133)
     119         MOVE "" to MANUAL
     120     TRANSFER to MANUAL 1 4 from TIME
     121     SUBTRACT ULTIMAHORA from MANUAL
     122         IF MANUAL is greater than 1 THEN GOTO NoRepetido(133)
     123         IF MANUAL is less than 0 THEN GOTO NoRepetido(133)
     124         IF CREDENCIAL ends with "Z" THEN GOTO NoRepetido(133)
     125         IF CREDENCIAL ends with "Y" THEN GOTO NoRepetido(133)
     126         LED 3 ON
     127 CONTROL LINE 3 OFF
     128         MOVE "SU CREDENCIAL YA FUE LEIDA !!!" to LETRERO
     129        GOSUB DlgAlerta(233)
     130         LED 3 OFF
     131 CONTROL LINE 3 ON
     132         GOTO Restart(22)
     133 NoRepetido:           
     134         MOVE CREDENCIAL to ULTIMO
     135         IF VALIDAR equals 0 THEN GOTO RevisaZ(144)
     136   BIN LOOKUP in "L-EMPLEADO", 1, 7, 9, using CREDENCIAL into OUT
     137         IF OUT starts with "0000" THEN GOTO NoAutorizado(139)
     138         GOTO RevisaZ(144)
     139 NoAutorizado:           
     140         IF MODORELOJ equals "P" THEN GOTO Rechazada(171)
     141      DISPLAY w/CLR2  41 25 from "Credencial No Autorizada:"
     142      DISPLAY 67 7 from CREDENCIAL
     143         GOTO Rechazada(171)
     144 RevisaZ:           
     145         IF CREDENCIAL ends with "Z" THEN GOTO Supervisor(153)
     146         IF CREDENCIAL ends with "Y" THEN GOTO Supervisor(153)
     147         IF CREDENCIAL starts with 999999 THEN GOTO AutoCredencial(150)
     148         IF MODORELOJ equals "P" THEN GOTO Rechazada(171)
     149         GOTO Aceptada(169)
     150 AutoCredencial:           
     151        RIGHT 1 characters of CREDENCIAL into MODORELOJ
     152         GOTO Restart(22)
     153 Supervisor:           
     154         MOVE 1 to SUPERVISA
     155      DISPLAY w/CLR1  3 36 from "IN, OUT, F1=AUTO ENTRA, F2=AUTO SALE"
     156      DISPLAY w/CLR2  41 40 from "F3=NORMAL, F4=PROHIBE, F5=VAL, F6=MANUAL"
     157     READ KBD to IN  0 0  on Timeout 1500 goto Cancelada(265)
     158         ON F1 KEY GOTO AutoEntrada(67)
     159         ON F2 KEY GOTO AutoSalida(71)
     160         ON F3 KEY GOTO AutoAuto(63)
     161         ON F4 KEY GOTO AutoProhibe(79)
     162         ON F5 KEY GOTO Validacion(238)
     163         ON F6 KEY GOTO RegManual(251)
     164         ON F7 KEY GOTO AutoNormal(75)
     165         ON In KEY GOTO SendEntrada(200)
     166         ON Out KEY GOTO SendSalida(203)
     167        SOUND 300, 1
     168         GOTO Restart(22)
     169 Aceptada:           
     170         GOTO SendBadge(184)
     171 Rechazada:           
     172         LED 3 ON
     173 CONTROL LINE 3 OFF
     174        SOUND 3000, .15
     175        PAUSE .2
     176        SOUND 3000, .15
     177        PAUSE .2
     178        SOUND 3000, .15
     179        PAUSE .2
     180        SOUND 3000, .3
     181         LED 3 OFF
     182 CONTROL LINE 3 ON
     183         GOTO UpdateTime(44)
     184 SendBadge:           
     185         IF SUPERVISA equals 1 THEN GOTO TeclearInOut(191)
     186         IF OPGAFETE equals 1 THEN GOTO SendEntrada(200)
     187         IF OPGAFETE equals 0 THEN GOTO SendSalida(203)
     188         IF MODORELOJ equals "A" THEN GOTO SendEntrada(200)
     189         IF MODORELOJ equals "E" THEN GOTO SendData(206)
     190         IF MODORELOJ equals "S" THEN GOTO SendData(206)
     191 TeclearInOut:           
     192      DISPLAY w/CLR1  2 38 from "Oprima:    IN = ENTRADA   OUT = SALIDA"
     193     READ KBD to IN  0 0  on Timeout 1500 goto Cancelada(265)
     194         ON Exit KEY GOTO Restart(22)
     195         ON In KEY GOTO SendEntrada(200)
     196         ON Out KEY GOTO SendSalida(203)
     197         MOVE "TECLA NO ES VALIDA" to LETRERO
     198        GOSUB DlgAlerta(233)
     199         GOTO TeclearInOut(191)
     200 SendEntrada:           
     201         MOVE 1 to OP
     202         GOTO SendData(206)
     203 SendSalida:           
     204         MOVE 0 to OP
     205         GOTO SendData(206)
     206 SendData:           
     207         LED 2 ON
     208 CONTROL LINE 1 ON
     209      DISPLAY 53 6 from CREDENCIAL
     210      DISPLAY 60 9 from "Gracias !"
     211         MOVE "@" to NET
     212       APPEND CREDENCIAL to NET
     213         MOVE "" to MANUAL
     214     TRANSFER to MANUAL 1 4 from DATE
     215       APPEND MANUAL to NET
     216     TRANSFER to ULTIMAHORA 1 4 from TIME
     217       APPEND ULTIMAHORA to NET
     218       APPEND OP to NET
     219         SEND NET to host data QUEUE
     220        PAUSE .25
     221         LED 2 OFF
     222 CONTROL LINE 1 OFF
     223         IF MODORELOJ equals "N" THEN GOTO Restart(22)
     224         IF SUPERVISA equals 1 THEN GOTO Restart(22)
     225         GOTO UpdateTime(44)
     226 PausaDecimas:           
     227         IF LEN_PAUSA is less than 1 THEN GOTO FinPausa(231)
     228        PAUSE .1
     229     SUBTRACT 1 from LEN_PAUSA
     230         GOTO PausaDecimas(226)
     231 FinPausa:           
     232       RETURN from Gosub
     233 DlgAlerta:           
     234      DISPLAY w/CLR1  1 40 from LETRERO
     235        SOUND 300, 1
     236        PAUSE 1.5
     237       RETURN from Gosub
     238 Validacion:           
     239         IF VALIDAR equals 1 THEN GOTO NoValidar(244)
     240         MOVE 1 to VALIDAR
     241         MOVE "VALIDACION: *** ACTIVADA ***" to LETRERO
     242        GOSUB DlgAlerta(233)
     243         GOTO Restart(22)
     244 NoValidar:           
     245         MOVE 0 to VALIDAR
     246         MOVE "VALIDACION: *** CANCELADA ***" to LETRERO
     247        GOSUB DlgAlerta(233)
     248         GOTO Restart(22)
     249 Consulta:           
     250         GOTO Restart(22)
     251 RegManual:           
     252 CLEAR SCREEN
     253      DISPLAY 9 23 from "*** Registro Manual ***"
     254      DISPLAY 41 11 from "Empleado #:"
     255         MOVE 0 to MANUAL
     256     READ KBD BADGE to MANUAL  53 6 AutoExit Zerofill  on Timeout 1500 goto Cancelada(265)
     257         ON Badge INPUT GOTO ConCredencial(262)
     258         MOVE "" to CREDENCIAL
     259     TRANSFER to CREDENCIAL 1 6 from MANUAL
     260       APPEND "+" to CREDENCIAL
     261         GOTO SendBadge(184)
     262 ConCredencial:           
     263         MOVE MANUAL to CREDENCIAL
     264         GOTO SendBadge(184)
     265 Cancelada:           
     266         MOVE "        *** OPERACION CANCELADA ***" to LETRERO
     267        GOSUB DlgAlerta(233)
     268         GOTO Restart(22)
 
- Generation completed with no errors.
- Basic file TRESS2_1.BAS contains 1017 lines.
- LXB compilation.

NO ERRORS DETECTED
 
- TRESS2_1.LXE can be downloaded to LINX terminals
