----- Personality ACCESOS generated by A.I. V3.0 at 02:14 pm on 18-Jul-01
 
       1 CONTROL LINE 1 OFF
       2 CONTROL LINE 2 ON
       3 CONTROL LINE 3 ON
       4 CONTROL LINE 4 ON
       5         LED 2 OFF
       6         LED 3 OFF
       7         MOVE "A" to MODORELOJ
       8         MOVE "XXXX" to LASTAUTO
       9         MOVE 0 to CERO
      10         MOVE 1 to UNO
      11         MOVE CERO to VALIDAR
      12         MOVE "" to ULTIMO
      13         MOVE "NOMBRE" to EMPRESA
      14   SEQ LOOKUP in "L-ALARMA", 1 using EMPRESA into OUT
      15         IF OUT starts with "0000" THEN GOTO NoHuboNombre(19)
      16       MIDDLE 1140 characters of OUT into OUT
      17         MOVE OUT to EMPRESA
      18         GOTO Restart(22)
      19 NoHuboNombre:           
      20         MOVE "          Grupo TRESS" to EMPRESA
      21         GOTO Restart(22)
      22 Restart:           
      23 CLEAR SCREEN
      24         MOVE CERO to SUPERVISA
      25         IF MODORELOJ equals "A" THEN GOTO ModoNormal(30)
      26         IF MODORELOJ equals "N" THEN GOTO ModoNormal(30)
      27         IF MODORELOJ equals "E" THEN GOTO ModoEntrada(33)
      28         IF MODORELOJ equals "S" THEN GOTO ModoSalida(37)
      29         IF MODORELOJ equals "P" THEN GOTO ModoProhibe(41)
      30 ModoNormal:           
      31      DISPLAY 1 40 from EMPRESA
      32         GOTO UpdateTime(44)
      33 ModoEntrada:           
      34      DISPLAY 6 29 from "RELOJ RAPIDO: *** ENTRADA ***"
      35         MOVE UNO to OP
      36         GOTO UpdateTime(44)
      37 ModoSalida:           
      38      DISPLAY 7 28 from "RELOJ RAPIDO: *** SALIDA ***"
      39         MOVE CERO to OP
      40         GOTO UpdateTime(44)
      41 ModoProhibe:           
      42      DISPLAY 5 32 from "*** NO ESTA PERMITIDO CHECAR ***"
      43         GOTO UpdateTime(44)
      44 UpdateTime:           
      45      DISPLAY w/CLR2  41 9 from TIME
      46      DISPLAY 72 9 from DATE
      47     TRANSFER to HORA 1 4 from TIME
      48         IF LASTAUTO equals HORA THEN GOTO NoHuboAlarma(107)
      49   SEQ LOOKUP in "L-ALARMA", 1 using HORA into OUT
      50         IF OUT starts with "0000" THEN GOTO NoHuboAlarma(107)
      51         MOVE HORA to LASTAUTO
      52       MIDDLE 920 characters of OUT into OUT
      53         IF OUT starts with "E" THEN GOTO AutoEntrada(69)
      54         IF OUT starts with "S" THEN GOTO AutoSalida(73)
      55         IF OUT starts with "N" THEN GOTO AutoNormal(77)
      56         IF OUT starts with "P" THEN GOTO AutoProhibe(81)
      57         IF OUT starts with "R" THEN GOTO AutoRelay(93)
      58         IF OUT starts with "A" THEN GOTO AutoAuto(65)
      59         IF OUT starts with "V" THEN GOTO AutoValida(85)
      60         IF OUT starts with "W" THEN GOTO AutoValida(85)
      61        SOUND 300, 1
      62      DISPLAY 48 23 from "ERROR EN ARCHIVO ALARMA"
      63        PAUSE 1
      64         GOTO Restart(22)
      65 AutoAuto:           
      66        SOUND 1000, .25
      67         MOVE "A" to MODORELOJ
      68         GOTO Restart(22)
      69 AutoEntrada:           
      70        SOUND 1000, .25
      71         MOVE "E" to MODORELOJ
      72         GOTO Restart(22)
      73 AutoSalida:           
      74        SOUND 1000, .25
      75         MOVE "S" to MODORELOJ
      76         GOTO Restart(22)
      77 AutoNormal:           
      78        SOUND 1000, .25
      79         MOVE "N" to MODORELOJ
      80         GOTO Restart(22)
      81 AutoProhibe:           
      82        SOUND 1000, .25
      83         MOVE "P" to MODORELOJ
      84         GOTO Restart(22)
      85 AutoValida:           
      86        SOUND 1000, .25
      87         IF OUT starts with "V" THEN GOTO PrendeValida(90)
      88         MOVE CERO to VALIDAR
      89         GOTO Restart(22)
      90 PrendeValida:           
      91         MOVE UNO to VALIDAR
      92         GOTO Restart(22)
      93 AutoRelay:           
      94       MIDDLE 32 characters of OUT into NUM_RINGS
      95       MIDDLE 52 characters of OUT into DURACION
      96       MIDDLE 72 characters of OUT into ESPACIO
      97 CicloRelay:           
      98         IF NUM_RINGS is less than 1 THEN GOTO Restart(22)
      99 CONTROL LINE 1 ON
     100         MOVE DURACION to LEN_PAUSA
     101        GOSUB PausaDecimas(247)
     102 CONTROL LINE 1 OFF
     103         MOVE ESPACIO to LEN_PAUSA
     104        GOSUB PausaDecimas(247)
     105     SUBTRACT UNO from NUM_RINGS
     106         GOTO CicloRelay(97)
     107 NoHuboAlarma:           
     108         MOVE CERO to EXTERNO
     109         READ BADGE COM AUX to IN  on Timeout 3000 goto UpdateTime(44)
     110         ON Badge INPUT GOTO AskForBadge(116)
     111         ON Comm port INPUT GOTO LectorExterno(114)
     112        SOUND 2000, .15
     113         GOTO UpdateTime(44)
     114 LectorExterno:           
     115         MOVE UNO to EXTERNO
     116 AskForBadge:           
     117         MOVE IN to CREDENCIAL
     118       LENGTH of CREDENCIAL into TAMANO
     119         IF TAMANO equals 11 THEN GOTO NormalSize(132)
     120         LEFT UNO characters of CREDENCIAL into MANUAL
     121         IF TAMANO equals 7 THEN GOTO MideSiete(125)
     122       APPEND "00" to MANUAL
     123        RIGHT 8 characters of CREDENCIAL into CREDENCIAL
     124         GOTO Ajustada(128)
     125 MideSiete:           
     126       APPEND "0000" to MANUAL
     127        RIGHT 6 characters of CREDENCIAL into CREDENCIAL
     128 Ajustada:           
     129       APPEND CREDENCIAL to MANUAL
     130         MOVE MANUAL to CREDENCIAL
     131         GOTO NormalSize(132)
     132 NormalSize:           
     133         IF EXTERNO equals UNO THEN GOTO ValidaExterno(149)
     134         IF CREDENCIAL is not equal to ULTIMO THEN GOTO NoRepetido(156)
     135         MOVE "" to MANUAL
     136     TRANSFER to MANUAL 1 4 from TIME
     137     SUBTRACT ULTIMAHORA from MANUAL
     138         IF MANUAL is greater than UNO THEN GOTO NoRepetido(156)
     139         IF MANUAL is less than CERO THEN GOTO NoRepetido(156)
     140         IF CREDENCIAL ends with "Z" THEN GOTO NoRepetido(156)
     141         IF CREDENCIAL ends with "Y" THEN GOTO NoRepetido(156)
     142         LED 3 ON
     143 CONTROL LINE 3 OFF
     144         MOVE "SU CREDENCIAL YA FUE LEIDA !!!" to LETRERO
     145        GOSUB DlgAlerta(254)
     146         LED 3 OFF
     147 CONTROL LINE 3 ON
     148         GOTO Restart(22)
     149 ValidaExterno:           
     150   BIN LOOKUP in "L-EMPLEADO", 1, 11, 13, using CREDENCIAL into OUT
     151         IF OUT starts with "0000" THEN GOTO NoAutorizado(162)
     152 CONTROL LINE 4 OFF
     153        PAUSE 3
     154 CONTROL LINE 4 ON
     155         GOTO UpdateTime(44)
     156 NoRepetido:           
     157         MOVE CREDENCIAL to ULTIMO
     158         IF VALIDAR equals CERO THEN GOTO RevisaZ(167)
     159   BIN LOOKUP in "L-EMPLEADO", 1, 11, 13, using CREDENCIAL into OUT
     160         IF OUT starts with "0000" THEN GOTO NoAutorizado(162)
     161         GOTO RevisaZ(167)
     162 NoAutorizado:           
     163         IF MODORELOJ equals "P" THEN GOTO Rechazada(194)
     164      DISPLAY w/CLR2  41 25 from "Credencial No Autorizada:"
     165      DISPLAY 67 11 from CREDENCIAL
     166         GOTO Rechazada(194)
     167 RevisaZ:           
     168         IF CREDENCIAL ends with "Z" THEN GOTO Supervisor(176)
     169         IF CREDENCIAL ends with "Y" THEN GOTO Supervisor(176)
     170         IF CREDENCIAL starts with 9000099999 THEN GOTO AutoCredencial(173)
     171         IF MODORELOJ equals "P" THEN GOTO Rechazada(194)
     172         GOTO Aceptada(192)
     173 AutoCredencial:           
     174        RIGHT UNO characters of CREDENCIAL into MODORELOJ
     175         GOTO Restart(22)
     176 Supervisor:           
     177         MOVE UNO to SUPERVISA
     178      DISPLAY w/CLR1  3 36 from "IN, OUT, F1=AUTO ENTRA, F2=AUTO SALE"
     179      DISPLAY w/CLR2  41 40 from "F3=NORMAL, F4=PROHIBE, F5=VAL, F6=MANUAL"
     180     READ KBD to IN  0 0  on Timeout 1500 goto Cancelada(286)
     181         ON F1 KEY GOTO AutoEntrada(69)
     182         ON F2 KEY GOTO AutoSalida(73)
     183         ON F3 KEY GOTO AutoAuto(65)
     184         ON F4 KEY GOTO AutoProhibe(81)
     185         ON F5 KEY GOTO Validacion(259)
     186         ON F6 KEY GOTO RegManual(272)
     187         ON F7 KEY GOTO AutoNormal(77)
     188         ON In KEY GOTO SendEntrada(221)
     189         ON Out KEY GOTO SendSalida(224)
     190        SOUND 300, 1
     191         GOTO Restart(22)
     192 Aceptada:           
     193         GOTO SendBadge(207)
     194 Rechazada:           
     195         LED 3 ON
     196 CONTROL LINE 3 OFF
     197        SOUND 3000, .15
     198        PAUSE .2
     199        SOUND 3000, .15
     200        PAUSE .2
     201        SOUND 3000, .15
     202        PAUSE .2
     203        SOUND 3000, .3
     204         LED 3 OFF
     205 CONTROL LINE 3 ON
     206         GOTO UpdateTime(44)
     207 SendBadge:           
     208         IF SUPERVISA equals UNO THEN GOTO TeclearInOut(212)
     209         IF MODORELOJ equals "A" THEN GOTO SendEntrada(221)
     210         IF MODORELOJ equals "E" THEN GOTO SendData(227)
     211         IF MODORELOJ equals "S" THEN GOTO SendData(227)
     212 TeclearInOut:           
     213      DISPLAY w/CLR1  2 38 from "Oprima:    IN = ENTRADA   OUT = SALIDA"
     214     READ KBD to IN  0 0  on Timeout 1500 goto Cancelada(286)
     215         ON Exit KEY GOTO Restart(22)
     216         ON In KEY GOTO SendEntrada(221)
     217         ON Out KEY GOTO SendSalida(224)
     218         MOVE "TECLA NO ES VALIDA" to LETRERO
     219        GOSUB DlgAlerta(254)
     220         GOTO TeclearInOut(212)
     221 SendEntrada:           
     222         MOVE UNO to OP
     223         GOTO SendData(227)
     224 SendSalida:           
     225         MOVE CERO to OP
     226         GOTO SendData(227)
     227 SendData:           
     228         LED 2 ON
     229 CONTROL LINE 2 OFF
     230      DISPLAY 50 10 from CREDENCIAL
     231      DISPLAY 62 8 from "Gracias!"
     232         MOVE "@" to NET
     233       APPEND CREDENCIAL to NET
     234         MOVE "" to MANUAL
     235     TRANSFER to MANUAL 1 4 from DATE
     236       APPEND MANUAL to NET
     237     TRANSFER to ULTIMAHORA 1 4 from TIME
     238       APPEND ULTIMAHORA to NET
     239       APPEND OP to NET
     240         SEND NET to host data QUEUE
     241        PAUSE .25
     242         LED 2 OFF
     243 CONTROL LINE 2 ON
     244         IF MODORELOJ equals "N" THEN GOTO Restart(22)
     245         IF SUPERVISA equals UNO THEN GOTO Restart(22)
     246         GOTO UpdateTime(44)
     247 PausaDecimas:           
     248         IF LEN_PAUSA is less than UNO THEN GOTO FinPausa(252)
     249        PAUSE .1
     250     SUBTRACT UNO from LEN_PAUSA
     251         GOTO PausaDecimas(247)
     252 FinPausa:           
     253       RETURN from Gosub
     254 DlgAlerta:           
     255      DISPLAY w/CLR1  1 40 from LETRERO
     256        SOUND 300, 1
     257        PAUSE 1.5
     258       RETURN from Gosub
     259 Validacion:           
     260         IF VALIDAR equals UNO THEN GOTO NoValidar(265)
     261         MOVE UNO to VALIDAR
     262         MOVE "VALIDACION: *** ACTIVADA ***" to LETRERO
     263        GOSUB DlgAlerta(254)
     264         GOTO Restart(22)
     265 NoValidar:           
     266         MOVE CERO to VALIDAR
     267         MOVE "VALIDACION: *** CANCELADA ***" to LETRERO
     268        GOSUB DlgAlerta(254)
     269         GOTO Restart(22)
     270 Consulta:           
     271         GOTO Restart(22)
     272 RegManual:           
     273 CLEAR SCREEN
     274      DISPLAY 9 23 from "*** Registro Manual ***"
     275      DISPLAY 41 11 from "Empleado #:"
     276         MOVE CERO to MANUAL
     277     READ KBD BADGE to MANUAL  53 10 Numeric AutoExit Zerofill  on Timeout 1500 goto Cancelada(286)
     278         ON Badge INPUT GOTO ConCredencial(283)
     279         MOVE "" to CREDENCIAL
     280     TRANSFER to CREDENCIAL 1 10 from MANUAL
     281       APPEND "+" to CREDENCIAL
     282         GOTO SendBadge(207)
     283 ConCredencial:           
     284         MOVE MANUAL to CREDENCIAL
     285         GOTO SendBadge(207)
     286 Cancelada:           
     287         MOVE "        *** OPERACION CANCELADA ***" to LETRERO
     288        GOSUB DlgAlerta(254)
     289         GOTO Restart(22)
 
- Generation completed with no errors.
- Basic file ACCESOS.BAS contains 1107 lines.
- LXB compilation.

NO ERRORS DETECTED
 
- ACCESOS.LXE can be downloaded to LINX terminals
