----- Personality CAFET0 generated by A.I. V3.0 at 01:32 pm on 30-Jul-98
 
       1 CLEAR SCREEN
       2 CONTROL LINE 1 OFF
       3 CONTROL LINE 2 ON
       4 CONTROL LINE 3 ON
       5 CONTROL LINE 4 ON
       6         LED 2 OFF
       7         LED 3 OFF
       8         MOVE "N" to MODORELOJ
       9         MOVE "XXXX" to LASTAUTO
      10         MOVE 0 to CERO
      11         MOVE 1 to UNO
      12         MOVE UNO to VALIDAR
      13         MOVE "" to ULTIMO
      14         MOVE CERO to ACEPTADAS
      15         MOVE CERO to RECHAZADAS
      16         MOVE UNO to TIPOFOOD
      17    CHARACTER of 10 into MANUAL
      18    CHARACTER of 13 into CRLF
      19       APPEND MANUAL to CRLF
      20         MOVE "NOMBRE" to EMPRESA
      21   SEQ LOOKUP in "L-ALARMA", 1 using EMPRESA into OUT
      22         MOVE "CAFETERIA" to EMPRESA
      23         IF OUT starts with "0000" THEN GOTO Restart(27)
      24       MIDDLE 1140 characters of OUT into OUT
      25         MOVE OUT to EMPRESA
      26         GOTO Restart(27)
      27 Restart:           
      28         MOVE CERO to SUPERVISA
      29         IF MODORELOJ equals "N" THEN GOTO ModoNormal(31)
      30         IF MODORELOJ equals "P" THEN GOTO ModoProhibe(33)
      31 ModoNormal:           
      32         GOTO UpdateTime(36)
      33 ModoProhibe:           
      34      DISPLAY 1 9 from "PROHIBIDO"
      35         GOTO UpdateTime(36)
      36 UpdateTime:           
      37      DISPLAY 12 5 from TIME
      38      DISPLAY 18 23 from EMPRESA
      39     TRANSFER to HORA 1 4 from TIME
      40         IF LASTAUTO equals HORA THEN GOTO NoHuboAlarma(72)
      41   SEQ LOOKUP in "L-ALARMA", 1 using HORA into OUT
      42         IF OUT starts with "0000" THEN GOTO NoHuboAlarma(72)
      43         MOVE HORA to LASTAUTO
      44       MIDDLE 920 characters of OUT into OUT
      45         IF OUT starts with "N" THEN GOTO AutoNormal(56)
      46         IF OUT starts with "P" THEN GOTO AutoProhibe(61)
      47         IF OUT starts with "R" THEN GOTO AutoRelay(71)
      48         IF OUT equals 1 THEN GOTO TipoComida(65)
      49         IF OUT equals 2 THEN GOTO TipoComida(65)
      50         IF OUT equals 3 THEN GOTO TipoComida(65)
      51         IF OUT equals 0 THEN GOTO TipoComida(65)
      52        SOUND 300, 1
      53      DISPLAY 41 13 from "ERROR: ALARMA"
      54        PAUSE 1
      55         GOTO Restart(27)
      56 AutoNormal:           
      57        SOUND 1000, .25
      58 CLEAR SCREEN
      59         MOVE "N" to MODORELOJ
      60         GOTO Restart(27)
      61 AutoProhibe:           
      62        SOUND 1000, .25
      63         MOVE "P" to MODORELOJ
      64         GOTO Restart(27)
      65 TipoComida:           
      66        SOUND 1000, .25
      67         MOVE OUT to TIPOFOOD
      68      DISPLAY w/CLR2  41 6 from "TIPO ="
      69      DISPLAY 48 1 from TIPOFOOD
      70         GOTO Restart(27)
      71 AutoRelay:           
      72 NoHuboAlarma:           
      73     READ KBD BADGE to IN  0 0  on Timeout 3000 goto UpdateTime(36)
      74         ON Badge INPUT GOTO AskForBadge(77)
      75        SOUND 2000, .15
      76         GOTO UpdateTime(36)
      77 AskForBadge:           
      78         MOVE IN to CREDENCIAL
      79         MOVE "01" to NUMCOMIDAS
      80         IF CREDENCIAL starts with "CAFE" THEN GOTO Operador(122)
      81         IF CREDENCIAL equals "012345B" THEN GOTO Operador(122)
      82       LENGTH of CREDENCIAL into TAMANO
      83         IF TAMANO equals 7 THEN GOTO NormalSize(87)
      84         MOVE CERO to MANUAL
      85       APPEND CREDENCIAL to MANUAL
      86         MOVE MANUAL to CREDENCIAL
      87 NormalSize:           
      88         IF CREDENCIAL is not equal to ULTIMO THEN GOTO NoRepetido(102)
      89         MOVE "" to MANUAL
      90     TRANSFER to MANUAL 1 4 from TIME
      91     SUBTRACT ULTIMAHORA from MANUAL
      92         IF MANUAL is greater than 1 THEN GOTO NoRepetido(102)
      93         IF MANUAL is less than 0 THEN GOTO NoRepetido(102)
      94         LED 3 ON
      95        SOUND 300, 1
      96      DISPLAY w/CLR2  41 1 from ""
      97      DISPLAY 41 16 from "MISMO?  ENTER=SI"
      98         LED 3 OFF
      99     READ KBD to IN  0 0  on Timeout 500 goto OpCancelada(277)
     100         ON Enter KEY GOTO NoRepetido(102)
     101         GOTO OpCancelada(277)
     102 NoRepetido:           
     103         MOVE CREDENCIAL to ULTIMO
     104         GOTO RevisaZ(105)
     105 RevisaZ:           
     106         IF CREDENCIAL ends with "Z" THEN GOTO Supervisor(119)
     107         IF CREDENCIAL ends with "Y" THEN GOTO Supervisor(119)
     108         IF CREDENCIAL starts with 999999 THEN GOTO AutoCredencial(111)
     109         IF MODORELOJ equals "P" THEN GOTO Rechazada(160)
     110         GOTO SendBadge(173)
     111 AutoCredencial:           
     112        RIGHT 1 characters of CREDENCIAL into OUT
     113         IF OUT equals 1 THEN GOTO TipoComida(65)
     114         IF OUT equals 2 THEN GOTO TipoComida(65)
     115         IF OUT equals 3 THEN GOTO TipoComida(65)
     116         IF OUT equals 0 THEN GOTO TipoComida(65)
     117        RIGHT 1 characters of CREDENCIAL into MODORELOJ
     118         GOTO Restart(27)
     119 Supervisor:           
     120         MOVE UNO to SUPERVISA
     121         GOTO SendBadge(173)
     122 Operador:           
     123      DISPLAY w/CLR1  1 16 from "F1=CANCEL,F2=MAN"
     124      DISPLAY w/CLR2  41 16 from "F3=CORTE, F4=VAL"
     125     READ KBD to IN  0 0 Default  on Timeout 1500 goto OpCancelada(277)
     126         ON F1 KEY GOTO Cancelar(135)
     127         ON F2 KEY GOTO PrepManual(132)
     128         ON F3 KEY GOTO Corte(139)
     129         ON F4 KEY GOTO Validacion(247)
     130        SOUND 300, 1
     131         GOTO Restart(27)
     132 PrepManual:           
     133         MOVE "* MANUAL *" to LETRERO
     134         GOTO RegManual(259)
     135 Cancelar:           
     136         MOVE -1 to NUMCOMIDAS
     137         MOVE "* CANCELAR *" to LETRERO
     138         GOTO RegManual(259)
     139 Corte:           
     140 CLEAR SCREEN
     141         MOVE "* CORTE *" to MANUAL
     142      DISPLAY 1 16 from MANUAL
     143       APPEND CRLF to MANUAL
     144         SEND MANUAL to AUX port
     145         MOVE RECHAZADAS to LETRERO
     146       APPEND " : RECHAZADAS" to LETRERO
     147        GOSUB DlgAlerta(242)
     148       APPEND CRLF to LETRERO
     149         SEND LETRERO to AUX port
     150        PAUSE 4
     151         MOVE ACEPTADAS to LETRERO
     152       APPEND " : ACEPTADAS" to LETRERO
     153        GOSUB DlgAlerta(242)
     154       APPEND CRLF to LETRERO
     155         SEND LETRERO to AUX port
     156        PAUSE 4
     157         MOVE CERO to ACEPTADAS
     158         MOVE CERO to RECHAZADAS
     159         GOTO Restart(27)
     160 Rechazada:           
     161         LED 3 ON
     162 CONTROL LINE 3 OFF
     163        SOUND 3000, .15
     164        PAUSE .2
     165        SOUND 3000, .15
     166        PAUSE .2
     167        SOUND 3000, .15
     168        PAUSE .2
     169        SOUND 3000, .3
     170         LED 3 OFF
     171 CONTROL LINE 3 ON
     172         GOTO UpdateTime(36)
     173 SendBadge:           
     174         MOVE TIPOFOOD to IN
     175         IF TIPOFOOD is greater than 0 THEN GOTO HayTipo(180)
     176         MOVE UNO to IN
     177      DISPLAY w/CLR2  41 5 from "Tipo:"
     178     READ KBD to IN  47 1 Numeric AutoExit Default  on Timeout 1000 goto OpCancelada(277)
     179         IF IN is not between 1 and 3 THEN GOTO SendBadge(173)
     180 HayTipo:           
     181         MOVE CERO to STATUSVALIDA
     182 CLEAR SCREEN
     183      DISPLAY 1 6 from CREDENCIAL
     184      DISPLAY 1 1 from "#"
     185         MOVE "#" to NET
     186       APPEND CREDENCIAL to NET
     187         MOVE "" to MANUAL
     188     TRANSFER to MANUAL 1 4 from DATE
     189       APPEND MANUAL to NET
     190     TRANSFER to ULTIMAHORA 1 4 from TIME
     191       APPEND ULTIMAHORA to NET
     192       APPEND NUMCOMIDAS to NET
     193       APPEND IN to NET
     194       MIDDLE 215 characters of NET into LASTRECORD
     195         SEND NET to host data QUEUE
     196         IF VALIDAR equals 1 THEN GOTO EsperaRespuesta(199)
     197         MOVE "ACEPTADA" to RESPUESTA
     198         GOTO AceptaComida(225)
     199 EsperaRespuesta:           
     200    READ HOST to IN  on Timeout 500 goto NoHuboRespuesta(210)
     201         IF IN starts with LASTRECORD THEN GOTO RespuestaOK(205)
     202      DISPLAY w/CLR1  1 10 from "INCORRECTA"
     203        SOUND 300, 1
     204         GOTO EsperaRespuesta(199)
     205 RespuestaOK:           
     206       MIDDLE 161 characters of IN into STATUSVALIDA
     207       MIDDLE 1740 characters of IN into RESPUESTA
     208         IF STATUSVALIDA equals 2 THEN GOTO AceptaComida(225)
     209         GOTO RechazaComida(214)
     210 NoHuboRespuesta:           
     211         MOVE UNO to STATUSVALIDA
     212         MOVE "NO RESPONDE" to RESPUESTA
     213         GOTO AceptaComida(225)
     214 RechazaComida:           
     215         MOVE 3 to STATUSVALIDA
     216         LED 3 ON
     217 CONTROL LINE 3 OFF
     218         MOVE RESPUESTA to LETRERO
     219        GOSUB DlgAlerta(242)
     220         ADD NUMCOMIDAS to RECHAZADAS
     221 CONTROL LINE 3 ON
     222        GOSUB IMPRIME(269)
     223         LED 3 OFF
     224         GOTO Restart(27)
     225 AceptaComida:           
     226         LED 2 ON
     227 CONTROL LINE 2 OFF
     228      DISPLAY w/CLR2  41 40 from RESPUESTA
     229         ADD NUMCOMIDAS to ACEPTADAS
     230        GOSUB IMPRIME(269)
     231        PAUSE .25
     232         LED 2 OFF
     233 CONTROL LINE 2 ON
     234         GOTO Restart(27)
     235 PausaDecimas:           
     236         IF LEN_PAUSA is less than 1 THEN GOTO FinPausa(240)
     237        PAUSE .1
     238     SUBTRACT 1 from LEN_PAUSA
     239         GOTO PausaDecimas(235)
     240 FinPausa:           
     241       RETURN from Gosub
     242 DlgAlerta:           
     243      DISPLAY w/CLR2  41 40 from LETRERO
     244        SOUND 300, 1
     245        PAUSE 1.5
     246       RETURN from Gosub
     247 Validacion:           
     248      DISPLAY w/CLR1  1 7 from "VALIDAR"
     249         IF VALIDAR equals 1 THEN GOTO NoValidar(254)
     250         MOVE UNO to VALIDAR
     251         MOVE "* ACTIVADA *" to LETRERO
     252        GOSUB DlgAlerta(242)
     253         GOTO Restart(27)
     254 NoValidar:           
     255         MOVE CERO to VALIDAR
     256         MOVE "* CANCELADA *" to LETRERO
     257        GOSUB DlgAlerta(242)
     258         GOTO Restart(27)
     259 RegManual:           
     260 CLEAR SCREEN
     261      DISPLAY 1 2 from "#:"
     262      DISPLAY 41 40 from LETRERO
     263         MOVE CERO to MANUAL
     264     READ KBD BADGE to MANUAL  3 6 Numeric AutoExit Zerofill  on Timeout 1500 goto OpCancelada(277)
     265         MOVE "" to CREDENCIAL
     266     TRANSFER to CREDENCIAL 1 6 from MANUAL
     267       APPEND "+" to CREDENCIAL
     268         GOTO SendBadge(173)
     269 Imprime:           
     270         MOVE "" to MANUAL
     271       APPEND CREDENCIAL to MANUAL
     272       APPEND " : " to MANUAL
     273       APPEND RESPUESTA to MANUAL
     274       APPEND CRLF to MANUAL
     275         SEND MANUAL to AUX port
     276       RETURN from Gosub
     277 OpCancelada:           
     278         MOVE "OP. CANCELADA" to LETRERO
     279        GOSUB DlgAlerta(242)
     280         GOTO Restart(27)
 
- Generation completed with no errors.
- Basic file CAFET0.BAS contains 1062 lines.
- LXB compilation.

NO ERRORS DETECTED
 
- CAFET0.LXE can be downloaded to LINX terminals
