----- Personality PROXB generated by A.I. V3.0 at 12:00 pm on 28-Jun-06
 
       1 '----- Sistemas TRESS / Linx -----
       2 'Created by Edgar Mora - Noviembre '94
       3 CONTROL LINE 1 OFF
       4 CONTROL LINE 2 ON
       5 CONTROL LINE 3 ON
       6 CONTROL LINE 4 ON
       7         LED 2 OFF
       8         LED 3 OFF
       9         MOVE "A" to MODORELOJ
      10         MOVE "XXXX" to LASTAUTO
      11         MOVE 0 to VALIDAR
      12         MOVE "" to ULTIMO
      13         MOVE "NOMBRE" to EMPRESA
      14   SEQ LOOKUP in "L-ALARMA", 1 using EMPRESA into OUT
      15         IF OUT starts with "0000" THEN GOTO NoHuboNombre(19)
      16       MIDDLE 1140 characters of OUT into OUT
      17         MOVE OUT to EMPRESA
      18         GOTO Restart(22)
      19 NoHuboNombre:           
      20         MOVE "          Sistemas TRESS, S.C." to EMPRESA
      21         GOTO Restart(22)
      22 Restart:           
      23 CLEAR SCREEN
      24         MOVE 0 to SUPERVISA
      25         IF MODORELOJ equals "A" THEN GOTO ModoNormal(30)
      26         IF MODORELOJ equals "N" THEN GOTO ModoNormal(30)
      27         IF MODORELOJ equals "E" THEN GOTO ModoEntrada(33)
      28         IF MODORELOJ equals "S" THEN GOTO ModoSalida(37)
      29         IF MODORELOJ equals "P" THEN GOTO ModoProhibe(41)
      30 ModoNormal:           
      31      DISPLAY 1 40 from EMPRESA
      32         GOTO UpdateTime(44)
      33 ModoEntrada:           
      34      DISPLAY 6 29 from "RELOJ RAPIDO: *** ENTRADA ***"
      35         MOVE 1 to OP
      36         GOTO UpdateTime(44)
      37 ModoSalida:           
      38      DISPLAY 7 28 from "RELOJ RAPIDO: *** SALIDA ***"
      39         MOVE 0 to OP
      40         GOTO UpdateTime(44)
      41 ModoProhibe:           
      42      DISPLAY 5 32 from "*** NO ESTA PERMITIDO CHECAR ***"
      43         GOTO UpdateTime(44)
      44 UpdateTime:           
      45      DISPLAY w/CLR2  41 9 from TIME
      46      DISPLAY 72 9 from DATE
      47     TRANSFER to HORA 1 4 from TIME
      48         IF LASTAUTO equals HORA THEN GOTO NoHuboAlarma(109)
      49   SEQ LOOKUP in "L-ALARMA", 1 using HORA into OUT
      50         IF OUT starts with "0000" THEN GOTO NoHuboAlarma(109)
      51         MOVE HORA to LASTAUTO
      52       MIDDLE 920 characters of OUT into OUT
      53         IF OUT starts with "E" THEN GOTO AutoEntrada(69)
      54         IF OUT starts with "S" THEN GOTO AutoSalida(73)
      55         IF OUT starts with "N" THEN GOTO AutoNormal(77)
      56         IF OUT starts with "P" THEN GOTO AutoProhibe(81)
      57         IF OUT starts with "R" THEN GOTO AutoRelay(93)
      58         IF OUT starts with "A" THEN GOTO AutoAuto(65)
      59         IF OUT starts with "V" THEN GOTO AutoValida(85)
      60         IF OUT starts with "W" THEN GOTO AutoValida(85)
      61        SOUND 300, 1
      62      DISPLAY 48 23 from "ERROR EN ARCHIVO ALARMA"
      63        PAUSE 1
      64         GOTO Restart(22)
      65 AutoAuto:           
      66        SOUND 1000, .25
      67         MOVE "A" to MODORELOJ
      68         GOTO Restart(22)
      69 AutoEntrada:           
      70        SOUND 1000, .25
      71         MOVE "E" to MODORELOJ
      72         GOTO Restart(22)
      73 AutoSalida:           
      74        SOUND 1000, .25
      75         MOVE "S" to MODORELOJ
      76         GOTO Restart(22)
      77 AutoNormal:           
      78        SOUND 1000, .25
      79         MOVE "N" to MODORELOJ
      80         GOTO Restart(22)
      81 AutoProhibe:           
      82        SOUND 1000, .25
      83         MOVE "P" to MODORELOJ
      84         GOTO Restart(22)
      85 AutoValida:           
      86        SOUND 1000, .25
      87         IF OUT starts with "V" THEN GOTO PrendeValida(90)
      88         MOVE 0 to VALIDAR
      89         GOTO Restart(22)
      90 PrendeValida:           
      91         MOVE 1 to VALIDAR
      92         GOTO Restart(22)
      93 AutoRelay:           
      94       MIDDLE 32 characters of OUT into NUM_RINGS
      95       MIDDLE 52 characters of OUT into DURACION
      96       MIDDLE 72 characters of OUT into ESPACIO
      97 CicloRelay:           
      98         IF NUM_RINGS is less than 1 THEN GOTO Restart(22)
      99 CONTROL LINE 1 ON
     100 CONTROL LINE 4 OFF
     101         MOVE DURACION to LEN_PAUSA
     102        GOSUB PausaDecimas(235)
     103 CONTROL LINE 1 OFF
     104 CONTROL LINE 4 ON
     105         MOVE ESPACIO to LEN_PAUSA
     106        GOSUB PausaDecimas(235)
     107     SUBTRACT 1 from NUM_RINGS
     108         GOTO CicloRelay(97)
     109 NoHuboAlarma:           
     110     READ KBD BADGE to IN  0 0  on Timeout 300 goto UpdateTime(44)
     111         ON Badge INPUT GOTO AskForBadge(114)
     112        SOUND 2000, .15
     113         GOTO UpdateTime(44)
     114 AskForBadge:           
     115         MOVE 2 to OPGAFETE
     116         MOVE IN to CREDENCIAL
     117       LENGTH of CREDENCIAL into TAMANO
     118         IF TAMANO equals 8 THEN GOTO IncluyeOp(124)
     119         IF TAMANO equals 7 THEN GOTO NormalSize(127)
     120         MOVE 0 to MANUAL
     121       APPEND CREDENCIAL to MANUAL
     122         MOVE MANUAL to CREDENCIAL
     123         GOTO NormalSize(127)
     124 IncluyeOp:           
     125        RIGHT 1 characters of CREDENCIAL into OPGAFETE
     126         LEFT 7 characters of CREDENCIAL into CREDENCIAL
     127 NormalSize:           
     128         IF CREDENCIAL is not equal to ULTIMO THEN GOTO NoRepetido(143)
     129         MOVE "" to MANUAL
     130     TRANSFER to MANUAL 1 4 from TIME
     131     SUBTRACT ULTIMAHORA from MANUAL
     132         IF MANUAL is greater than 1 THEN GOTO NoRepetido(143)
     133         IF MANUAL is less than 0 THEN GOTO NoRepetido(143)
     134         IF CREDENCIAL ends with "Z" THEN GOTO NoRepetido(143)
     135         IF CREDENCIAL ends with "Y" THEN GOTO NoRepetido(143)
     136         LED 3 ON
     137 CONTROL LINE 3 OFF
     138         MOVE "SU CREDENCIAL YA FUE LEIDA !!!" to LETRERO
     139        GOSUB DlgAlerta(242)
     140         LED 3 OFF
     141 CONTROL LINE 3 ON
     142         GOTO Restart(22)
     143 NoRepetido:           
     144         MOVE CREDENCIAL to ULTIMO
     145         IF VALIDAR equals 0 THEN GOTO RevisaZ(154)
     146   BIN LOOKUP in "L-EMPLEADO", 1, 7, 9, using CREDENCIAL into OUT
     147         IF OUT starts with "0000" THEN GOTO NoAutorizado(149)
     148         GOTO RevisaZ(154)
     149 NoAutorizado:           
     150         IF MODORELOJ equals "P" THEN GOTO Rechazada(181)
     151      DISPLAY w/CLR2  41 25 from "Credencial No Autorizada:"
     152      DISPLAY 67 7 from CREDENCIAL
     153         GOTO Rechazada(181)
     154 RevisaZ:           
     155         IF CREDENCIAL ends with "Z" THEN GOTO Supervisor(163)
     156         IF CREDENCIAL ends with "Y" THEN GOTO Supervisor(163)
     157         IF CREDENCIAL starts with 999999 THEN GOTO AutoCredencial(160)
     158         IF MODORELOJ equals "P" THEN GOTO Rechazada(181)
     159         GOTO Aceptada(179)
     160 AutoCredencial:           
     161        RIGHT 1 characters of CREDENCIAL into MODORELOJ
     162         GOTO Restart(22)
     163 Supervisor:           
     164         MOVE 1 to SUPERVISA
     165      DISPLAY w/CLR1  3 36 from "IN, OUT, F1=AUTO ENTRA, F2=AUTO SALE"
     166      DISPLAY w/CLR2  41 40 from "F3=NORMAL, F4=PROHIBE, F5=VAL, F6=MANUAL"
     167     READ KBD to IN  0 0  on Timeout 1500 goto Cancelada(274)
     168         ON F1 KEY GOTO AutoEntrada(69)
     169         ON F2 KEY GOTO AutoSalida(73)
     170         ON F3 KEY GOTO AutoAuto(65)
     171         ON F4 KEY GOTO AutoProhibe(81)
     172         ON F5 KEY GOTO Validacion(247)
     173         ON F6 KEY GOTO RegManual(260)
     174         ON F7 KEY GOTO AutoNormal(77)
     175         ON In KEY GOTO SendEntrada(210)
     176         ON Out KEY GOTO SendSalida(213)
     177        SOUND 300, 1
     178         GOTO Restart(22)
     179 Aceptada:           
     180         GOTO SendBadge(194)
     181 Rechazada:           
     182         LED 3 ON
     183 CONTROL LINE 3 OFF
     184        SOUND 3000, .15
     185        PAUSE .2
     186        SOUND 3000, .15
     187        PAUSE .2
     188        SOUND 3000, .15
     189        PAUSE .2
     190        SOUND 3000, .3
     191         LED 3 OFF
     192 CONTROL LINE 3 ON
     193         GOTO UpdateTime(44)
     194 SendBadge:           
     195         IF SUPERVISA equals 1 THEN GOTO TeclearInOut(201)
     196         IF OPGAFETE equals 1 THEN GOTO SendEntrada(210)
     197         IF OPGAFETE equals 0 THEN GOTO SendSalida(213)
     198         IF MODORELOJ equals "A" THEN GOTO SendEntrada(210)
     199         IF MODORELOJ equals "E" THEN GOTO SendData(216)
     200         IF MODORELOJ equals "S" THEN GOTO SendData(216)
     201 TeclearInOut:           
     202      DISPLAY w/CLR1  2 38 from "Oprima:    IN = ENTRADA   OUT = SALIDA"
     203     READ KBD to IN  0 0  on Timeout 1500 goto Cancelada(274)
     204         ON Exit KEY GOTO Restart(22)
     205         ON In KEY GOTO SendEntrada(210)
     206         ON Out KEY GOTO SendSalida(213)
     207         MOVE "TECLA NO ES VALIDA" to LETRERO
     208        GOSUB DlgAlerta(242)
     209         GOTO TeclearInOut(201)
     210 SendEntrada:           
     211         MOVE 1 to OP
     212         GOTO SendData(216)
     213 SendSalida:           
     214         MOVE 0 to OP
     215         GOTO SendData(216)
     216 SendData:           
     217         LED 2 ON
     218 CONTROL LINE 2 OFF
     219      DISPLAY 60 9 from "Gracias !"
     220         MOVE "~" to NET
     221       APPEND CREDENCIAL to NET
     222         MOVE "" to MANUAL
     223     TRANSFER to MANUAL 1 4 from DATE
     224       APPEND MANUAL to NET
     225     TRANSFER to ULTIMAHORA 1 4 from TIME
     226       APPEND ULTIMAHORA to NET
     227       APPEND OP to NET
     228         SEND NET to host data QUEUE
     229        PAUSE .25
     230         LED 2 OFF
     231 CONTROL LINE 2 ON
     232         IF MODORELOJ equals "N" THEN GOTO Restart(22)
     233         IF SUPERVISA equals 1 THEN GOTO Restart(22)
     234         GOTO UpdateTime(44)
     235 PausaDecimas:           
     236         IF LEN_PAUSA is less than 1 THEN GOTO FinPausa(240)
     237        PAUSE .1
     238     SUBTRACT 1 from LEN_PAUSA
     239         GOTO PausaDecimas(235)
     240 FinPausa:           
     241       RETURN from Gosub
     242 DlgAlerta:           
     243      DISPLAY w/CLR1  1 40 from LETRERO
     244        SOUND 300, 1
     245        PAUSE 1.5
     246       RETURN from Gosub
     247 Validacion:           
     248         IF VALIDAR equals 1 THEN GOTO NoValidar(253)
     249         MOVE 1 to VALIDAR
     250         MOVE "VALIDACION: *** ACTIVADA ***" to LETRERO
     251        GOSUB DlgAlerta(242)
     252         GOTO Restart(22)
     253 NoValidar:           
     254         MOVE 0 to VALIDAR
     255         MOVE "VALIDACION: *** CANCELADA ***" to LETRERO
     256        GOSUB DlgAlerta(242)
     257         GOTO Restart(22)
     258 Consulta:           
     259         GOTO Restart(22)
     260 RegManual:           
     261 CLEAR SCREEN
     262      DISPLAY 9 23 from "*** Registro Manual ***"
     263      DISPLAY 41 11 from "Empleado #:"
     264         MOVE 0 to MANUAL
     265     READ KBD BADGE to MANUAL  53 6 AutoExit Zerofill  on Timeout 1500 goto Cancelada(274)
     266         ON Badge INPUT GOTO ConCredencial(271)
     267         MOVE "" to CREDENCIAL
     268     TRANSFER to CREDENCIAL 1 6 from MANUAL
     269       APPEND "+" to CREDENCIAL
     270         GOTO SendBadge(194)
     271 ConCredencial:           
     272         MOVE MANUAL to CREDENCIAL
     273         GOTO SendBadge(194)
     274 Cancelada:           
     275         MOVE "        *** OPERACION CANCELADA ***" to LETRERO
     276        GOSUB DlgAlerta(242)
     277         GOTO Restart(22)
 
- Generation completed with no errors.
- Basic file PROXB.BAS contains 1028 lines.
- LXB compilation.

NO ERRORS DETECTED
 
- PROXB.LXE can be downloaded to LINX terminals
