----- Personality SCIENTIF generated by A.I. V3.0 at 09:00 am on 16-Sep-09
 
       1 CONTROL LINE 1 OFF
       2 CONTROL LINE 2 ON
       3 CONTROL LINE 3 ON
       4 CONTROL LINE 4 ON
       5 CONTROL LINE 5 ON
       6 CONTROL LINE 6 ON
       7         LED 2 OFF
       8         LED 3 OFF
       9         MOVE "A" to MODORELOJ
      10         MOVE "XXXX" to LASTAUTO
      11         MOVE 0 to CERO
      12         MOVE 1 to UNO
      13         MOVE UNO to VALIDAR
      14         MOVE "" to ULTIMO
      15         MOVE "NOMBRE" to EMPRESA
      16   SEQ LOOKUP in "L-ALARMA", 1 using EMPRESA into OUT
      17         IF OUT starts with "0000" THEN GOTO NoHuboNombre(21)
      18       MIDDLE 1116 characters of OUT into OUT
      19         MOVE OUT to EMPRESA
      20         GOTO Restart(24)
      21 NoHuboNombre:           
      22         MOVE "T R E S S" to EMPRESA
      23         GOTO Restart(24)
      24 Restart:           
      25 CLEAR SCREEN
      26         MOVE 0 to SUPERVISA
      27         IF MODORELOJ equals "A" THEN GOTO ModoNormal(32)
      28         IF MODORELOJ equals "N" THEN GOTO ModoNormal(32)
      29         IF MODORELOJ equals "E" THEN GOTO ModoEntrada(35)
      30         IF MODORELOJ equals "S" THEN GOTO ModoSalida(39)
      31         IF MODORELOJ equals "P" THEN GOTO ModoProhibe(43)
      32 ModoNormal:           
      33      DISPLAY 1 16 from EMPRESA
      34         GOTO UpdateTime(46)
      35 ModoEntrada:           
      36      DISPLAY 1 15 from "*** ENTRADA ***"
      37         MOVE UNO to OP
      38         GOTO UpdateTime(46)
      39 ModoSalida:           
      40      DISPLAY 2 14 from "*** SALIDA ***"
      41         MOVE CERO to OP
      42         GOTO UpdateTime(46)
      43 ModoProhibe:           
      44      DISPLAY 1 15 from "** NO CHECAR **"
      45         GOTO UpdateTime(46)
      46 UpdateTime:           
      47      DISPLAY w/CLR2  41 9 from TIME
      48      DISPLAY 51 9 from DATE
      49     TRANSFER to HORA 1 4 from TIME
      50         IF LASTAUTO equals HORA THEN GOTO NoHuboAlarma(111)
      51   SEQ LOOKUP in "L-ALARMA", 1 using HORA into OUT
      52         IF OUT starts with "0000" THEN GOTO NoHuboAlarma(111)
      53         MOVE HORA to LASTAUTO
      54       MIDDLE 920 characters of OUT into OUT
      55         IF OUT starts with "E" THEN GOTO AutoEntrada(71)
      56         IF OUT starts with "S" THEN GOTO AutoSalida(75)
      57         IF OUT starts with "N" THEN GOTO AutoNormal(79)
      58         IF OUT starts with "P" THEN GOTO AutoProhibe(83)
      59         IF OUT starts with "R" THEN GOTO AutoRelay(95)
      60         IF OUT starts with "A" THEN GOTO AutoAuto(67)
      61         IF OUT starts with "V" THEN GOTO AutoValida(87)
      62         IF OUT starts with "W" THEN GOTO AutoValida(87)
      63        SOUND 300, 1
      64      DISPLAY 43 12 from "ERROR ALARMA"
      65        PAUSE 1
      66         GOTO Restart(24)
      67 AutoAuto:           
      68        SOUND 1000, .25
      69         MOVE "A" to MODORELOJ
      70         GOTO Restart(24)
      71 AutoEntrada:           
      72        SOUND 1000, .25
      73         MOVE "E" to MODORELOJ
      74         GOTO Restart(24)
      75 AutoSalida:           
      76        SOUND 1000, .25
      77         MOVE "S" to MODORELOJ
      78         GOTO Restart(24)
      79 AutoNormal:           
      80        SOUND 1000, .25
      81         MOVE "N" to MODORELOJ
      82         GOTO Restart(24)
      83 AutoProhibe:           
      84        SOUND 1000, .25
      85         MOVE "P" to MODORELOJ
      86         GOTO Restart(24)
      87 AutoValida:           
      88        SOUND 1000, .25
      89         IF OUT starts with "V" THEN GOTO PrendeValida(92)
      90         MOVE 0 to VALIDAR
      91         GOTO Restart(24)
      92 PrendeValida:           
      93         MOVE UNO to VALIDAR
      94         GOTO Restart(24)
      95 AutoRelay:           
      96       MIDDLE 32 characters of OUT into NUM_RINGS
      97       MIDDLE 52 characters of OUT into DURACION
      98       MIDDLE 72 characters of OUT into ESPACIO
      99 CicloRelay:           
     100         IF NUM_RINGS is less than UNO THEN GOTO Restart(24)
     101 CONTROL LINE 1 ON
     102 CONTROL LINE 4 OFF
     103         MOVE DURACION to LEN_PAUSA
     104        GOSUB PausaDecimas(235)
     105 CONTROL LINE 1 OFF
     106 CONTROL LINE 4 ON
     107         MOVE ESPACIO to LEN_PAUSA
     108        GOSUB PausaDecimas(235)
     109     SUBTRACT UNO from NUM_RINGS
     110         GOTO CicloRelay(99)
     111 NoHuboAlarma:           
     112         READ BADGE COM AUX to IN  on Timeout 300 goto UpdateTime(46)
     113         ON Comm port INPUT GOTO AskForBadge(118)
     114         ON Badge INPUT GOTO AskForBadge(118)
     115         ON Aux port INPUT GOTO AskForBadge(118)
     116        SOUND 2000, .15
     117         GOTO UpdateTime(46)
     118 AskForBadge:           
     119         MOVE IN to CREDENCIAL
     120 MideTamano:           
     121       LENGTH of CREDENCIAL into TAMANO
     122         IF TAMANO equals 11 THEN GOTO NormalSize(127)
     123         MOVE 0 to MANUAL
     124       APPEND CREDENCIAL to MANUAL
     125         MOVE MANUAL to CREDENCIAL
     126         GOTO MideTamano(120)
     127 NormalSize:           
     128         IF CREDENCIAL is not equal to ULTIMO THEN GOTO NoRepetido(143)
     129         MOVE "" to MANUAL
     130     TRANSFER to MANUAL 1 4 from TIME
     131     SUBTRACT ULTIMAHORA from MANUAL
     132         IF MANUAL is greater than UNO THEN GOTO NoRepetido(143)
     133         IF MANUAL is less than CERO THEN GOTO NoRepetido(143)
     134         IF CREDENCIAL ends with "Z" THEN GOTO NoRepetido(143)
     135         IF CREDENCIAL ends with "Y" THEN GOTO NoRepetido(143)
     136         LED 3 ON
     137 CONTROL LINE 3 OFF
     138         MOVE "YA FUE LEIDA !!!" to LETRERO
     139        GOSUB DlgAlerta(242)
     140         LED 3 OFF
     141 CONTROL LINE 3 ON
     142         GOTO Restart(24)
     143 NoRepetido:           
     144         MOVE CREDENCIAL to ULTIMO
     145         IF VALIDAR equals 0 THEN GOTO RevisaZ(154)
     146   BIN LOOKUP in "L-EMPLEADO", 1, 11, 13, using CREDENCIAL into OUT
     147         IF OUT starts with "0000" THEN GOTO NoAutorizado(149)
     148         GOTO RevisaZ(154)
     149 NoAutorizado:           
     150         IF MODORELOJ equals "P" THEN GOTO Rechazada(183)
     151      DISPLAY w/CLR2  41 8 from "No Auto:"
     152      DISPLAY 50 7 from CREDENCIAL
     153         GOTO Rechazada(183)
     154 RevisaZ:           
     155         IF CREDENCIAL ends with "Z" THEN GOTO Supervisor(163)
     156         IF CREDENCIAL ends with "Y" THEN GOTO Supervisor(163)
     157         IF CREDENCIAL starts with 9000099999 THEN GOTO AutoCredencial(160)
     158         IF MODORELOJ equals "P" THEN GOTO Rechazada(183)
     159         GOTO Aceptada(181)
     160 AutoCredencial:           
     161        RIGHT UNO characters of CREDENCIAL into MODORELOJ
     162         GOTO Restart(24)
     163 Supervisor:           
     164         MOVE UNO to SUPERVISA
     165      DISPLAY w/CLR1  1 16 from "IN, OUT, F1 - F4"
     166      DISPLAY w/CLR2  42 15 from "5=VAL, 6=MANUAL"
     167     READ KBD to IN  0 0  on Timeout 1500 goto Cancelada(274)
     168         ON F1 KEY GOTO AutoEntrada(71)
     169         ON F2 KEY GOTO AutoSalida(75)
     170         ON F3 KEY GOTO AutoAuto(67)
     171         ON F4 KEY GOTO AutoProhibe(83)
     172         ON F5 KEY GOTO Validacion(247)
     173         ON F6 KEY GOTO RegManual(260)
     174         ON F7 KEY GOTO AutoNormal(79)
     175         ON In KEY GOTO SendEntrada(208)
     176         ON Out KEY GOTO SendSalida(211)
     177         ON KEY = 53 GOTO Validacion(247)
     178         ON KEY = 54 GOTO RegManual(260)
     179        SOUND 300, 1
     180         GOTO Restart(24)
     181 Aceptada:           
     182         GOTO SendBadge(194)
     183 Rechazada:           
     184 CONTROL LINE 3 OFF
     185        SOUND 3000, .15
     186        PAUSE .2
     187        SOUND 3000, .15
     188        PAUSE .2
     189        SOUND 3000, .15
     190        PAUSE .2
     191        SOUND 3000, .3
     192 CONTROL LINE 3 ON
     193         GOTO UpdateTime(46)
     194 SendBadge:           
     195         IF SUPERVISA equals UNO THEN GOTO TeclearInOut(199)
     196         IF MODORELOJ equals "A" THEN GOTO SendEntrada(208)
     197         IF MODORELOJ equals "E" THEN GOTO SendData(214)
     198         IF MODORELOJ equals "S" THEN GOTO SendData(214)
     199 TeclearInOut:           
     200      DISPLAY w/CLR1  1 16 from "IN=ENTRA OUT=SAL"
     201     READ KBD to IN  0 0  on Timeout 1500 goto Cancelada(274)
     202         ON Exit KEY GOTO Restart(24)
     203         ON In KEY GOTO SendEntrada(208)
     204         ON Out KEY GOTO SendSalida(211)
     205         MOVE "TECLA INVALIDA" to LETRERO
     206        GOSUB DlgAlerta(242)
     207         GOTO TeclearInOut(199)
     208 SendEntrada:           
     209         MOVE UNO to OP
     210         GOTO SendData(214)
     211 SendSalida:           
     212         MOVE CERO to OP
     213         GOTO SendData(214)
     214 SendData:           
     215 CONTROL LINE 2 OFF
     216 CONTROL LINE 5 OFF
     217 CONTROL LINE 6 OFF
     218      DISPLAY w/CLR2  41 15 from "*** Gracias ***"
     219         MOVE "@@" to NET
     220       APPEND CREDENCIAL to NET
     221         MOVE "" to MANUAL
     222     TRANSFER to MANUAL 1 4 from DATE
     223       APPEND MANUAL to NET
     224     TRANSFER to ULTIMAHORA 1 4 from TIME
     225       APPEND ULTIMAHORA to NET
     226       APPEND OP to NET
     227         SEND NET to host data QUEUE
     228        PAUSE .25
     229 CONTROL LINE 2 ON
     230 CONTROL LINE 5 ON
     231 CONTROL LINE 6 ON
     232         IF MODORELOJ equals "N" THEN GOTO Restart(24)
     233         IF SUPERVISA equals 1 THEN GOTO Restart(24)
     234         GOTO UpdateTime(46)
     235 PausaDecimas:           
     236         IF LEN_PAUSA is less than 1 THEN GOTO FinPausa(240)
     237        PAUSE .1
     238     SUBTRACT 1 from LEN_PAUSA
     239         GOTO PausaDecimas(235)
     240 FinPausa:           
     241       RETURN from Gosub
     242 DlgAlerta:           
     243      DISPLAY w/CLR1  1 16 from LETRERO
     244        SOUND 300, 1
     245        PAUSE 1.5
     246       RETURN from Gosub
     247 Validacion:           
     248         IF VALIDAR equals UNO THEN GOTO NoValidar(253)
     249         MOVE 1 to VALIDAR
     250         MOVE "VALID: ACTIVADA" to LETRERO
     251        GOSUB DlgAlerta(242)
     252         GOTO Restart(24)
     253 NoValidar:           
     254         MOVE CERO to VALIDAR
     255         MOVE "VALID: CANCELADA" to LETRERO
     256        GOSUB DlgAlerta(242)
     257         GOTO Restart(24)
     258 Consulta:           
     259         GOTO Restart(24)
     260 RegManual:           
     261 CLEAR SCREEN
     262      DISPLAY 1 15 from "Registro Manual"
     263      DISPLAY 41 6 from "Emp #:"
     264         MOVE CERO to MANUAL
     265     READ KBD BADGE to MANUAL  51 6 AutoExit Zerofill  on Timeout 1500 goto Cancelada(274)
     266         ON Badge INPUT GOTO ConCredencial(271)
     267         MOVE "" to CREDENCIAL
     268     TRANSFER to CREDENCIAL 1 6 from MANUAL
     269       APPEND "+" to CREDENCIAL
     270         GOTO SendBadge(194)
     271 ConCredencial:           
     272         MOVE MANUAL to CREDENCIAL
     273         GOTO SendBadge(194)
     274 Cancelada:           
     275         MOVE ** CANCELADO ***" to LETRERO
     276        GOSUB DlgAlerta(242)
     277         GOTO Restart(24)
 
- Generation completed with no errors.
- Basic file SCIENTIF.BAS contains 1073 lines.
- LXB compilation.

NO ERRORS DETECTED
 
- SCIENTIF.LXE can be downloaded to LINX terminals
