----- Personality STERIS3 generated by A.I. V3.0 at 02:51 pm on 29-Jul-09
 
       1 CONTROL LINE 1 OFF
       2 CONTROL LINE 2 ON
       3 CONTROL LINE 3 ON
       4 CONTROL LINE 4 ON
       5 CONTROL LINE 5 ON
       6 CONTROL LINE 6 ON
       7         LED 2 OFF
       8         LED 3 OFF
       9         MOVE "A" to MODORELOJ
      10         MOVE "XXXX" to LASTAUTO
      11         MOVE 0 to CERO
      12         MOVE 1 to UNO
      13         MOVE UNO to VALIDAR
      14         MOVE "" to ULTIMO
      15         MOVE "NOMBRE" to EMPRESA
      16   SEQ LOOKUP in "L-ALARMA", 1 using EMPRESA into OUT
      17         IF OUT starts with "0000" THEN GOTO NoHuboNombre(21)
      18       MIDDLE 1116 characters of OUT into OUT
      19         MOVE OUT to EMPRESA
      20         GOTO Restart(24)
      21 NoHuboNombre:           
      22         MOVE "T R E S S" to EMPRESA
      23         GOTO Restart(24)
      24 Restart:           
      25 CLEAR SCREEN
      26         MOVE 0 to SUPERVISA
      27         IF MODORELOJ equals "A" THEN GOTO ModoNormal(32)
      28         IF MODORELOJ equals "N" THEN GOTO ModoNormal(32)
      29         IF MODORELOJ equals "E" THEN GOTO ModoEntrada(35)
      30         IF MODORELOJ equals "S" THEN GOTO ModoSalida(39)
      31         IF MODORELOJ equals "P" THEN GOTO ModoProhibe(43)
      32 ModoNormal:           
      33      DISPLAY 1 16 from EMPRESA
      34         GOTO UpdateTime(46)
      35 ModoEntrada:           
      36      DISPLAY 1 15 from "*** ENTRADA ***"
      37         MOVE UNO to OP
      38         GOTO UpdateTime(46)
      39 ModoSalida:           
      40      DISPLAY 2 14 from "*** SALIDA ***"
      41         MOVE CERO to OP
      42         GOTO UpdateTime(46)
      43 ModoProhibe:           
      44      DISPLAY 1 15 from "** NO CHECAR **"
      45         GOTO UpdateTime(46)
      46 UpdateTime:           
      47      DISPLAY w/CLR2  41 9 from TIME
      48      DISPLAY 51 9 from DATE
      49     TRANSFER to HORA 1 4 from TIME
      50         IF LASTAUTO equals HORA THEN GOTO NoHuboAlarma(111)
      51   SEQ LOOKUP in "L-ALARMA", 1 using HORA into OUT
      52         IF OUT starts with "0000" THEN GOTO NoHuboAlarma(111)
      53         MOVE HORA to LASTAUTO
      54       MIDDLE 920 characters of OUT into OUT
      55         IF OUT starts with "E" THEN GOTO AutoEntrada(71)
      56         IF OUT starts with "S" THEN GOTO AutoSalida(75)
      57         IF OUT starts with "N" THEN GOTO AutoNormal(79)
      58         IF OUT starts with "P" THEN GOTO AutoProhibe(83)
      59         IF OUT starts with "R" THEN GOTO AutoRelay(95)
      60         IF OUT starts with "A" THEN GOTO AutoAuto(67)
      61         IF OUT starts with "V" THEN GOTO AutoValida(87)
      62         IF OUT starts with "W" THEN GOTO AutoValida(87)
      63        SOUND 300, 1
      64      DISPLAY 43 12 from "ERROR ALARMA"
      65        PAUSE 1
      66         GOTO Restart(24)
      67 AutoAuto:           
      68        SOUND 1000, .25
      69         MOVE "A" to MODORELOJ
      70         GOTO Restart(24)
      71 AutoEntrada:           
      72        SOUND 1000, .25
      73         MOVE "E" to MODORELOJ
      74         GOTO Restart(24)
      75 AutoSalida:           
      76        SOUND 1000, .25
      77         MOVE "S" to MODORELOJ
      78         GOTO Restart(24)
      79 AutoNormal:           
      80        SOUND 1000, .25
      81         MOVE "N" to MODORELOJ
      82         GOTO Restart(24)
      83 AutoProhibe:           
      84        SOUND 1000, .25
      85         MOVE "P" to MODORELOJ
      86         GOTO Restart(24)
      87 AutoValida:           
      88        SOUND 1000, .25
      89         IF OUT starts with "V" THEN GOTO PrendeValida(92)
      90         MOVE 0 to VALIDAR
      91         GOTO Restart(24)
      92 PrendeValida:           
      93         MOVE UNO to VALIDAR
      94         GOTO Restart(24)
      95 AutoRelay:           
      96       MIDDLE 32 characters of OUT into NUM_RINGS
      97       MIDDLE 52 characters of OUT into DURACION
      98       MIDDLE 72 characters of OUT into ESPACIO
      99 CicloRelay:           
     100         IF NUM_RINGS is less than UNO THEN GOTO Restart(24)
     101 CONTROL LINE 1 ON
     102 CONTROL LINE 4 OFF
     103         MOVE DURACION to LEN_PAUSA
     104        GOSUB PausaDecimas(243)
     105 CONTROL LINE 1 OFF
     106 CONTROL LINE 4 ON
     107         MOVE ESPACIO to LEN_PAUSA
     108        GOSUB PausaDecimas(243)
     109     SUBTRACT UNO from NUM_RINGS
     110         GOTO CicloRelay(99)
     111 NoHuboAlarma:           
     112         READ BADGE COM AUX to IN  on Timeout 300 goto UpdateTime(46)
     113         ON Comm port INPUT GOTO AskForBadge(118)
     114         ON Badge INPUT GOTO AskForBadge(118)
     115         ON Aux port INPUT GOTO AskForBadge(118)
     116        SOUND 2000, .15
     117         GOTO UpdateTime(46)
     118 AskForBadge:           
     119         MOVE IN to CREDENCIAL
     120       LENGTH of CREDENCIAL into TAMANO
     121         IF TAMANO equals 11 THEN GOTO NormalSize(135)
     122         MOVE "000000" to MANUAL
     123         GOTO Ajustada(132)
     124         LEFT UNO characters of CREDENCIAL into MANUAL
     125         IF TAMANO equals 7 THEN GOTO MideSiete(129)
     126       APPEND "00" to MANUAL
     127        RIGHT 8 characters of CREDENCIAL into CREDENCIAL
     128        GOSUB Ajustada(132)
     129 MideSiete:           
     130       APPEND "0000" to MANUAL
     131        RIGHT 6 characters of CREDENCIAL into CREDENCIAL
     132 Ajustada:           
     133       APPEND CREDENCIAL to MANUAL
     134         MOVE MANUAL to CREDENCIAL
     135 NormalSize:           
     136         IF CREDENCIAL is not equal to ULTIMO THEN GOTO NoRepetido(151)
     137         MOVE "" to MANUAL
     138     TRANSFER to MANUAL 1 4 from TIME
     139     SUBTRACT ULTIMAHORA from MANUAL
     140         IF MANUAL is greater than UNO THEN GOTO NoRepetido(151)
     141         IF MANUAL is less than CERO THEN GOTO NoRepetido(151)
     142         IF CREDENCIAL ends with "Z" THEN GOTO NoRepetido(151)
     143         IF CREDENCIAL ends with "Y" THEN GOTO NoRepetido(151)
     144         LED 3 ON
     145 CONTROL LINE 3 OFF
     146         MOVE "YA FUE LEIDA !!!" to LETRERO
     147        GOSUB DlgAlerta(250)
     148         LED 3 OFF
     149 CONTROL LINE 3 ON
     150         GOTO Restart(24)
     151 NoRepetido:           
     152         MOVE CREDENCIAL to ULTIMO
     153         IF VALIDAR equals 0 THEN GOTO RevisaZ(162)
     154   BIN LOOKUP in "L-EMPLEADO", 1, 11, 13, using CREDENCIAL into OUT
     155         IF OUT starts with "0000" THEN GOTO NoAutorizado(157)
     156         GOTO RevisaZ(162)
     157 NoAutorizado:           
     158         IF MODORELOJ equals "P" THEN GOTO Rechazada(191)
     159      DISPLAY w/CLR2  41 8 from "No Auto:"
     160      DISPLAY 50 7 from CREDENCIAL
     161         GOTO Rechazada(191)
     162 RevisaZ:           
     163         IF CREDENCIAL ends with "Z" THEN GOTO Supervisor(171)
     164         IF CREDENCIAL ends with "Y" THEN GOTO Supervisor(171)
     165         IF CREDENCIAL starts with 9000099999 THEN GOTO AutoCredencial(168)
     166         IF MODORELOJ equals "P" THEN GOTO Rechazada(191)
     167         GOTO Aceptada(189)
     168 AutoCredencial:           
     169        RIGHT UNO characters of CREDENCIAL into MODORELOJ
     170         GOTO Restart(24)
     171 Supervisor:           
     172         MOVE UNO to SUPERVISA
     173      DISPLAY w/CLR1  1 16 from "IN, OUT, F1 - F4"
     174      DISPLAY w/CLR2  42 15 from "5=VAL, 6=MANUAL"
     175     READ KBD to IN  0 0  on Timeout 1500 goto Cancelada(282)
     176         ON F1 KEY GOTO AutoEntrada(71)
     177         ON F2 KEY GOTO AutoSalida(75)
     178         ON F3 KEY GOTO AutoAuto(67)
     179         ON F4 KEY GOTO AutoProhibe(83)
     180         ON F5 KEY GOTO Validacion(255)
     181         ON F6 KEY GOTO RegManual(268)
     182         ON F7 KEY GOTO AutoNormal(79)
     183         ON In KEY GOTO SendEntrada(216)
     184         ON Out KEY GOTO SendSalida(219)
     185         ON KEY = 53 GOTO Validacion(255)
     186         ON KEY = 54 GOTO RegManual(268)
     187        SOUND 300, 1
     188         GOTO Restart(24)
     189 Aceptada:           
     190         GOTO SendBadge(202)
     191 Rechazada:           
     192 CONTROL LINE 3 OFF
     193        SOUND 3000, .15
     194        PAUSE .2
     195        SOUND 3000, .15
     196        PAUSE .2
     197        SOUND 3000, .15
     198        PAUSE .2
     199        SOUND 3000, .3
     200 CONTROL LINE 3 ON
     201         GOTO UpdateTime(46)
     202 SendBadge:           
     203         IF SUPERVISA equals UNO THEN GOTO TeclearInOut(207)
     204         IF MODORELOJ equals "A" THEN GOTO SendEntrada(216)
     205         IF MODORELOJ equals "E" THEN GOTO SendData(222)
     206         IF MODORELOJ equals "S" THEN GOTO SendData(222)
     207 TeclearInOut:           
     208      DISPLAY w/CLR1  1 16 from "IN=ENTRA OUT=SAL"
     209     READ KBD to IN  0 0  on Timeout 1500 goto Cancelada(282)
     210         ON Exit KEY GOTO Restart(24)
     211         ON In KEY GOTO SendEntrada(216)
     212         ON Out KEY GOTO SendSalida(219)
     213         MOVE "TECLA INVALIDA" to LETRERO
     214        GOSUB DlgAlerta(250)
     215         GOTO TeclearInOut(207)
     216 SendEntrada:           
     217         MOVE UNO to OP
     218         GOTO SendData(222)
     219 SendSalida:           
     220         MOVE CERO to OP
     221         GOTO SendData(222)
     222 SendData:           
     223 CONTROL LINE 2 OFF
     224 CONTROL LINE 5 OFF
     225 CONTROL LINE 6 OFF
     226      DISPLAY w/CLR2  41 15 from "*** Gracias ***"
     227         MOVE "@@" to NET
     228       APPEND CREDENCIAL to NET
     229         MOVE "" to MANUAL
     230     TRANSFER to MANUAL 1 4 from DATE
     231       APPEND MANUAL to NET
     232     TRANSFER to ULTIMAHORA 1 4 from TIME
     233       APPEND ULTIMAHORA to NET
     234       APPEND OP to NET
     235         SEND NET to host data QUEUE
     236        PAUSE .25
     237 CONTROL LINE 2 ON
     238 CONTROL LINE 5 ON
     239 CONTROL LINE 6 ON
     240         IF MODORELOJ equals "N" THEN GOTO Restart(24)
     241         IF SUPERVISA equals 1 THEN GOTO Restart(24)
     242         GOTO UpdateTime(46)
     243 PausaDecimas:           
     244         IF LEN_PAUSA is less than 1 THEN GOTO FinPausa(248)
     245        PAUSE .1
     246     SUBTRACT 1 from LEN_PAUSA
     247         GOTO PausaDecimas(243)
     248 FinPausa:           
     249       RETURN from Gosub
     250 DlgAlerta:           
     251      DISPLAY w/CLR1  1 16 from LETRERO
     252        SOUND 300, 1
     253        PAUSE 1.5
     254       RETURN from Gosub
     255 Validacion:           
     256         IF VALIDAR equals UNO THEN GOTO NoValidar(261)
     257         MOVE 1 to VALIDAR
     258         MOVE "VALID: ACTIVADA" to LETRERO
     259        GOSUB DlgAlerta(250)
     260         GOTO Restart(24)
     261 NoValidar:           
     262         MOVE CERO to VALIDAR
     263         MOVE "VALID: CANCELADA" to LETRERO
     264        GOSUB DlgAlerta(250)
     265         GOTO Restart(24)
     266 Consulta:           
     267         GOTO Restart(24)
     268 RegManual:           
     269 CLEAR SCREEN
     270      DISPLAY 1 15 from "Registro Manual"
     271      DISPLAY 41 6 from "Emp #:"
     272         MOVE CERO to MANUAL
     273     READ KBD BADGE to MANUAL  51 6 AutoExit Zerofill  on Timeout 1500 goto Cancelada(282)
     274         ON Badge INPUT GOTO ConCredencial(279)
     275         MOVE "" to CREDENCIAL
     276     TRANSFER to CREDENCIAL 1 6 from MANUAL
     277       APPEND "+" to CREDENCIAL
     278         GOTO SendBadge(202)
     279 ConCredencial:           
     280         MOVE MANUAL to CREDENCIAL
     281         GOTO SendBadge(202)
     282 Cancelada:           
     283         MOVE ** CANCELADO ***" to LETRERO
     284        GOSUB DlgAlerta(250)
     285         GOTO Restart(24)
 
- Generation completed with no errors.
- Basic file STERIS3.BAS contains 1082 lines.
- LXB compilation.

NO ERRORS DETECTED
 
- STERIS3.LXE can be downloaded to LINX terminals
