----- Personality CAFE generated by A.I. V3.0 at 06:14 pm on 24-Mar-00
 
       1 CLEAR SCREEN
       2 CONTROL LINE 1 OFF
       3 CONTROL LINE 2 ON
       4 CONTROL LINE 3 ON
       5 CONTROL LINE 4 ON
       6 CONTROL LINE 5 ON
       7 CONTROL LINE 6 ON
       8         LED 2 OFF
       9         LED 3 OFF
      10         MOVE "N" to MODORELOJ
      11         MOVE "XXXX" to LASTAUTO
      12         MOVE 0 to CERO
      13         MOVE 1 to UNO
      14         MOVE UNO to VALIDAR
      15         MOVE "" to ULTIMO
      16         MOVE CERO to ACEPTADAS
      17         MOVE CERO to RECHAZADAS
      18         MOVE UNO to TIPOFOOD
      19    CHARACTER of 10 into MANUAL
      20    CHARACTER of 13 into CRLF
      21       APPEND MANUAL to CRLF
      22         MOVE "NOMBRE" to EMPRESA
      23   SEQ LOOKUP in "L-ALARMA", 1 using EMPRESA into OUT
      24         MOVE "CAFETERIA" to EMPRESA
      25         IF OUT starts with "0000" THEN GOTO Restart(29)
      26       MIDDLE 1140 characters of OUT into OUT
      27         MOVE OUT to EMPRESA
      28         GOTO Restart(29)
      29 Restart:           
      30         MOVE CERO to SUPERVISA
      31         IF MODORELOJ equals "N" THEN GOTO ModoNormal(33)
      32         IF MODORELOJ equals "P" THEN GOTO ModoProhibe(35)
      33 ModoNormal:           
      34         GOTO UpdateTime(38)
      35 ModoProhibe:           
      36      DISPLAY 1 9 from "PROHIBIDO"
      37         GOTO UpdateTime(38)
      38 UpdateTime:           
      39      DISPLAY 12 5 from TIME
      40      DISPLAY 18 23 from EMPRESA
      41     TRANSFER to HORA 1 4 from TIME
      42         IF LASTAUTO equals HORA THEN GOTO NoHuboAlarma(69)
      43   SEQ LOOKUP in "L-ALARMA", 1 using HORA into OUT
      44         IF OUT starts with "0000" THEN GOTO NoHuboAlarma(69)
      45         MOVE HORA to LASTAUTO
      46       MIDDLE 920 characters of OUT into OUT
      47         IF OUT starts with "N" THEN GOTO AutoNormal(54)
      48         IF OUT starts with "P" THEN GOTO AutoProhibe(59)
      49         IF OUT is between 0 and 9 THEN GOTO TipoComida(63)
      50        SOUND 300, 1
      51      DISPLAY 41 13 from "ERROR: ALARMA"
      52        PAUSE 1
      53         GOTO Restart(29)
      54 AutoNormal:           
      55        SOUND 1000, .25
      56 CLEAR SCREEN
      57         MOVE "N" to MODORELOJ
      58         GOTO Restart(29)
      59 AutoProhibe:           
      60        SOUND 1000, .25
      61         MOVE "P" to MODORELOJ
      62         GOTO Restart(29)
      63 TipoComida:           
      64        SOUND 1000, .25
      65         MOVE OUT to TIPOFOOD
      66      DISPLAY w/CLR2  41 6 from "TIPO ="
      67      DISPLAY 48 1 from TIPOFOOD
      68         GOTO Restart(29)
      69 NoHuboAlarma:           
      70     READ KBD BADGE to IN  0 0  on Timeout 3000 goto UpdateTime(38)
      71         ON Badge INPUT GOTO AskForBadge(74)
      72        SOUND 2000, .15
      73         GOTO UpdateTime(38)
      74 AskForBadge:           
      75         MOVE IN to CREDENCIAL
      76         MOVE "01" to NUMCOMIDAS
      77         IF CREDENCIAL starts with "CAFE" THEN GOTO Operador(123)
      78         IF CREDENCIAL equals "012345B" THEN GOTO Operador(123)
      79       LENGTH of CREDENCIAL into TAMANO
      80         IF TAMANO equals 7 THEN GOTO NormalSize(84)
      81         MOVE CERO to MANUAL
      82       APPEND CREDENCIAL to MANUAL
      83         MOVE MANUAL to CREDENCIAL
      84 NormalSize:           
      85       MIDDLE 22 characters of CREDENCIAL into INVITA
      86         IF INVITA equals "IV" THEN GOTO Invitador(101)
      87         IF CREDENCIAL is not equal to ULTIMO THEN GOTO NoRepetido(106)
      88         MOVE "" to MANUAL
      89     TRANSFER to MANUAL 1 4 from TIME
      90     SUBTRACT ULTIMAHORA from MANUAL
      91         IF MANUAL is greater than 1 THEN GOTO NoRepetido(106)
      92         IF MANUAL is less than 0 THEN GOTO NoRepetido(106)
      93         LED 3 ON
      94        SOUND 300, 1
      95      DISPLAY w/CLR2  41 1 from ""
      96      DISPLAY 41 16 from "MISMO?  ENTER=SI"
      97         LED 3 OFF
      98     READ KBD to IN  0 0  on Timeout 500 goto OpCancelada(288)
      99         ON Enter KEY GOTO NoRepetido(106)
     100         GOTO OpCancelada(288)
     101 Invitador:           
     102         MOVE UNO to IN
     103      DISPLAY w/CLR2  41 8 from "Comidas:"
     104     READ KBD to IN  50 2 Numeric AutoExit Default Zerofill  on Timeout 1000 goto OpCancelada(288)
     105         MOVE IN to NUMCOMIDAS
     106 NoRepetido:           
     107         MOVE CREDENCIAL to ULTIMO
     108         GOTO RevisaZ(109)
     109 RevisaZ:           
     110         IF CREDENCIAL ends with "Z" THEN GOTO Supervisor(120)
     111         IF CREDENCIAL ends with "Y" THEN GOTO Supervisor(120)
     112         IF CREDENCIAL starts with 999999 THEN GOTO AutoCredencial(115)
     113         IF MODORELOJ equals "P" THEN GOTO Rechazada(161)
     114         GOTO SendBadge(174)
     115 AutoCredencial:           
     116        RIGHT 1 characters of CREDENCIAL into OUT
     117         IF OUT is between 0 and 9 THEN GOTO TipoComida(63)
     118        RIGHT 1 characters of CREDENCIAL into MODORELOJ
     119         GOTO Restart(29)
     120 Supervisor:           
     121         MOVE UNO to SUPERVISA
     122         GOTO SendBadge(174)
     123 Operador:           
     124      DISPLAY w/CLR1  1 16 from "F1=CANCEL,F2=MAN"
     125      DISPLAY w/CLR2  41 16 from "F3=CORTE, F4=VAL"
     126     READ KBD to IN  0 0 Default  on Timeout 1500 goto OpCancelada(288)
     127         ON F1 KEY GOTO Cancelar(136)
     128         ON F2 KEY GOTO PrepManual(133)
     129         ON F3 KEY GOTO Corte(140)
     130         ON F4 KEY GOTO Validacion(256)
     131        SOUND 300, 1
     132         GOTO Restart(29)
     133 PrepManual:           
     134         MOVE "* MANUAL *" to LETRERO
     135         GOTO RegManual(268)
     136 Cancelar:           
     137         MOVE -1 to NUMCOMIDAS
     138         MOVE "* CANCELAR *" to LETRERO
     139         GOTO RegManual(268)
     140 Corte:           
     141 CLEAR SCREEN
     142         MOVE "* CORTE *" to MANUAL
     143      DISPLAY 1 16 from MANUAL
     144       APPEND CRLF to MANUAL
     145         SEND MANUAL to AUX port
     146         MOVE RECHAZADAS to LETRERO
     147       APPEND " : RECHAZADAS" to LETRERO
     148        GOSUB DlgAlerta(251)
     149       APPEND CRLF to LETRERO
     150         SEND LETRERO to AUX port
     151        PAUSE 4
     152         MOVE ACEPTADAS to LETRERO
     153       APPEND " : ACEPTADAS" to LETRERO
     154        GOSUB DlgAlerta(251)
     155       APPEND CRLF to LETRERO
     156         SEND LETRERO to AUX port
     157        PAUSE 4
     158         MOVE CERO to ACEPTADAS
     159         MOVE CERO to RECHAZADAS
     160         GOTO Restart(29)
     161 Rechazada:           
     162         LED 3 ON
     163 CONTROL LINE 3 OFF
     164        SOUND 3000, .15
     165        PAUSE .2
     166        SOUND 3000, .15
     167        PAUSE .2
     168        SOUND 3000, .15
     169        PAUSE .2
     170        SOUND 3000, .3
     171         LED 3 OFF
     172 CONTROL LINE 3 ON
     173         GOTO UpdateTime(38)
     174 SendBadge:           
     175 CLEAR SCREEN
     176      DISPLAY 1 6 from CREDENCIAL
     177      DISPLAY 1 1 from "#"
     178         MOVE TIPOFOOD to IN
     179         IF TIPOFOOD is greater than 0 THEN GOTO HayTipo(184)
     180         MOVE UNO to IN
     181      DISPLAY w/CLR2  41 5 from "Tipo:"
     182     READ KBD to IN  47 1 Numeric AutoExit Default  on Timeout 1000 goto OpCancelada(288)
     183         IF IN is not between 1 and 9 THEN GOTO SendBadge(174)
     184 HayTipo:           
     185         IF TIPOFOOD is not equal to 9 THEN GOTO HayComidas(189)
     186      DISPLAY 41 7 from "Precio:"
     187     READ KBD to NUMCOMIDAS  49 2 Numeric AutoExit Default Zerofill  on Timeout 1000 goto OpCancelada(288)
     188         IF NUMCOMIDAS is less than CERO THEN GOTO HayTipo(184)
     189 HayComidas:           
     190         MOVE CERO to STATUSVALIDA
     191         MOVE "#" to NET
     192       APPEND CREDENCIAL to NET
     193         MOVE "" to MANUAL
     194     TRANSFER to MANUAL 1 4 from DATE
     195       APPEND MANUAL to NET
     196     TRANSFER to ULTIMAHORA 1 4 from TIME
     197       APPEND ULTIMAHORA to NET
     198       APPEND NUMCOMIDAS to NET
     199       APPEND IN to NET
     200         MOVE IN to OUT
     201       MIDDLE 215 characters of NET into LASTRECORD
     202         SEND NET to host data QUEUE
     203         IF VALIDAR equals 1 THEN GOTO EsperaRespuesta(206)
     204         MOVE "ACEPTADA" to RESPUESTA
     205         GOTO AceptaComida(230)
     206 EsperaRespuesta:           
     207    READ HOST to IN  on Timeout 500 goto NoHuboRespuesta(215)
     208         IF IN starts with LASTRECORD THEN GOTO RespuestaOK(210)
     209         GOTO EsperaRespuesta(206)
     210 RespuestaOK:           
     211       MIDDLE 161 characters of IN into STATUSVALIDA
     212       MIDDLE 1740 characters of IN into RESPUESTA
     213         IF STATUSVALIDA equals 2 THEN GOTO AceptaComida(230)
     214         GOTO RechazaComida(219)
     215 NoHuboRespuesta:           
     216         MOVE UNO to STATUSVALIDA
     217         MOVE "NO RESPONDE" to RESPUESTA
     218         GOTO AceptaComida(230)
     219 RechazaComida:           
     220         MOVE 3 to STATUSVALIDA
     221         LED 3 ON
     222 CONTROL LINE 3 OFF
     223         MOVE RESPUESTA to LETRERO
     224        GOSUB DlgAlerta(251)
     225         ADD NUMCOMIDAS to RECHAZADAS
     226 CONTROL LINE 3 ON
     227        GOSUB IMPRIME(278)
     228         LED 3 OFF
     229         GOTO Restart(29)
     230 AceptaComida:           
     231         LED 2 ON
     232 CONTROL LINE 2 OFF
     233 CONTROL LINE 5 OFF
     234 CONTROL LINE 6 OFF
     235      DISPLAY w/CLR2  41 40 from RESPUESTA
     236         ADD NUMCOMIDAS to ACEPTADAS
     237        GOSUB IMPRIME(278)
     238        PAUSE .25
     239         LED 2 OFF
     240 CONTROL LINE 2 ON
     241 CONTROL LINE 5 ON
     242 CONTROL LINE 6 ON
     243         GOTO Restart(29)
     244 PausaDecimas:           
     245         IF LEN_PAUSA is less than 1 THEN GOTO FinPausa(249)
     246        PAUSE .1
     247     SUBTRACT 1 from LEN_PAUSA
     248         GOTO PausaDecimas(244)
     249 FinPausa:           
     250       RETURN from Gosub
     251 DlgAlerta:           
     252      DISPLAY w/CLR2  41 40 from LETRERO
     253        SOUND 300, 1
     254        PAUSE 1.5
     255       RETURN from Gosub
     256 Validacion:           
     257      DISPLAY w/CLR1  1 7 from "VALIDAR"
     258         IF VALIDAR equals 1 THEN GOTO NoValidar(263)
     259         MOVE UNO to VALIDAR
     260         MOVE "* ACTIVADA *" to LETRERO
     261        GOSUB DlgAlerta(251)
     262         GOTO Restart(29)
     263 NoValidar:           
     264         MOVE CERO to VALIDAR
     265         MOVE "* CANCELADA *" to LETRERO
     266        GOSUB DlgAlerta(251)
     267         GOTO Restart(29)
     268 RegManual:           
     269 CLEAR SCREEN
     270      DISPLAY 1 2 from "#:"
     271      DISPLAY 41 40 from LETRERO
     272         MOVE CERO to MANUAL
     273     READ KBD BADGE to MANUAL  3 6 Numeric AutoExit Zerofill  on Timeout 1500 goto OpCancelada(288)
     274         MOVE "" to CREDENCIAL
     275     TRANSFER to CREDENCIAL 1 6 from MANUAL
     276       APPEND "+" to CREDENCIAL
     277         GOTO SendBadge(174)
     278 Imprime:           
     279       APPEND HORA to MANUAL comma separated
     280       APPEND CREDENCIAL to MANUAL comma separated
     281       APPEND NUMCOMIDAS to MANUAL comma separated
     282       APPEND OUT to MANUAL comma separated
     283       APPEND " : " to MANUAL
     284       APPEND RESPUESTA to MANUAL
     285       APPEND CRLF to MANUAL
     286         SEND MANUAL to AUX port
     287       RETURN from Gosub
     288 OpCancelada:           
     289         MOVE "OP. CANCELADA" to LETRERO
     290        GOSUB DlgAlerta(251)
     291         GOTO Restart(29)
 
- Generation completed with no errors.
- Basic file CAFE.BAS contains 1100 lines.
- LXB compilation.

NO ERRORS DETECTED
 
- CAFE.LXE can be downloaded to LINX terminals
