----- Personality CAFTURBO generated by A.I. V3.0 at 01:41 pm on 18-Feb-99
 
       1 CLEAR SCREEN
       2 CONTROL LINE 1 OFF
       3 CONTROL LINE 2 ON
       4 CONTROL LINE 3 ON
       5 CONTROL LINE 4 ON
       6         LED 2 OFF
       7         LED 3 OFF
       8         MOVE "N" to MODORELOJ
       9         MOVE "XXXX" to LASTAUTO
      10         MOVE 0 to CERO
      11         MOVE 1 to UNO
      12         MOVE "" to ULTIMO
      13         MOVE CERO to ACEPTADAS
      14         MOVE CERO to RECHAZADAS
      15         MOVE UNO to TIPOFOOD
      16    CHARACTER of 10 into MANUAL
      17    CHARACTER of 13 into CRLF
      18       APPEND MANUAL to CRLF
      19         MOVE "NOMBRE" to EMPRESA
      20   SEQ LOOKUP in "L-ALARMA", 1 using EMPRESA into OUT
      21         MOVE "CAFETERIA" to EMPRESA
      22         IF OUT starts with "0000" THEN GOTO Restart(26)
      23       MIDDLE 1140 characters of OUT into OUT
      24         MOVE OUT to EMPRESA
      25         GOTO Restart(26)
      26 Restart:           
      27         MOVE CERO to SUPERVISA
      28         IF MODORELOJ equals "N" THEN GOTO ModoNormal(30)
      29         IF MODORELOJ equals "P" THEN GOTO ModoProhibe(32)
      30 ModoNormal:           
      31         GOTO UpdateTime(35)
      32 ModoProhibe:           
      33      DISPLAY 1 9 from "PROHIBIDO"
      34         GOTO UpdateTime(35)
      35 UpdateTime:           
      36      DISPLAY 12 5 from TIME
      37      DISPLAY 18 23 from EMPRESA
      38     TRANSFER to HORA 1 4 from TIME
      39         IF LASTAUTO equals HORA THEN GOTO NoHuboAlarma(66)
      40   SEQ LOOKUP in "L-ALARMA", 1 using HORA into OUT
      41         IF OUT starts with "0000" THEN GOTO NoHuboAlarma(66)
      42         MOVE HORA to LASTAUTO
      43       MIDDLE 920 characters of OUT into OUT
      44         IF OUT starts with "N" THEN GOTO AutoNormal(51)
      45         IF OUT starts with "P" THEN GOTO AutoProhibe(56)
      46         IF OUT is between 0 and 9 THEN GOTO TipoComida(60)
      47        SOUND 300, 1
      48      DISPLAY 41 13 from "ERROR: ALARMA"
      49        PAUSE 1
      50         GOTO Restart(26)
      51 AutoNormal:           
      52        SOUND 1000, .25
      53 CLEAR SCREEN
      54         MOVE "N" to MODORELOJ
      55         GOTO Restart(26)
      56 AutoProhibe:           
      57        SOUND 1000, .25
      58         MOVE "P" to MODORELOJ
      59         GOTO Restart(26)
      60 TipoComida:           
      61        SOUND 1000, .25
      62         MOVE OUT to TIPOFOOD
      63      DISPLAY w/CLR2  41 6 from "TIPO ="
      64      DISPLAY 48 1 from TIPOFOOD
      65         GOTO Restart(26)
      66 NoHuboAlarma:           
      67     READ KBD BADGE to IN  0 0  on Timeout 3000 goto UpdateTime(35)
      68         ON Badge INPUT GOTO AskForBadge(71)
      69        SOUND 2000, .15
      70         GOTO UpdateTime(35)
      71 AskForBadge:           
      72         MOVE IN to CREDENCIAL
      73         MOVE "01" to NUMCOMIDAS
      74         IF CREDENCIAL starts with "CAFE" THEN GOTO Operador(125)
      75       MIDDLE 25 characters of CREDENCIAL into MANUAL
      76   BIN LOOKUP in "L-EMPLEADO", 1, 5, 12, using MANUAL into CREDENCIAL
      77         IF CREDENCIAL starts with "0000" THEN GOTO NoExiste(83)
      78        RIGHT 5 characters of CREDENCIAL into MANUAL
      79         MOVE 0 to CREDENCIAL
      80       APPEND MANUAL to CREDENCIAL
      81       APPEND "A" to CREDENCIAL
      82         GOTO NormalSize(86)
      83 NoExiste:           
      84         MOVE "NO EXISTE EN LA LISTA" to RESPUESTA
      85         GOTO RechazaComida(217)
      86 NormalSize:           
      87       MIDDLE 22 characters of CREDENCIAL into INVITA
      88         IF INVITA equals "IV" THEN GOTO Invitador(103)
      89         IF CREDENCIAL is not equal to ULTIMO THEN GOTO NoRepetido(108)
      90         MOVE "" to MANUAL
      91     TRANSFER to MANUAL 1 4 from TIME
      92     SUBTRACT ULTIMAHORA from MANUAL
      93         IF MANUAL is greater than 1 THEN GOTO NoRepetido(108)
      94         IF MANUAL is less than 0 THEN GOTO NoRepetido(108)
      95         LED 3 ON
      96        SOUND 300, 1
      97      DISPLAY w/CLR2  41 1 from ""
      98      DISPLAY 41 16 from "MISMO?  ENTER=SI"
      99         LED 3 OFF
     100     READ KBD to IN  0 0  on Timeout 500 goto OpCancelada(270)
     101         ON Enter KEY GOTO NoRepetido(108)
     102         GOTO OpCancelada(270)
     103 Invitador:           
     104         MOVE UNO to IN
     105      DISPLAY w/CLR2  41 8 from "Comidas:"
     106     READ KBD to IN  50 2 Numeric AutoExit Default Zerofill  on Timeout 1000 goto OpCancelada(270)
     107         MOVE IN to NUMCOMIDAS
     108 NoRepetido:           
     109         MOVE CREDENCIAL to ULTIMO
     110         GOTO RevisaZ(111)
     111 RevisaZ:           
     112         IF CREDENCIAL ends with "Z" THEN GOTO Supervisor(122)
     113         IF CREDENCIAL ends with "Y" THEN GOTO Supervisor(122)
     114         IF CREDENCIAL starts with 999999 THEN GOTO AutoCredencial(117)
     115         IF MODORELOJ equals "P" THEN GOTO Rechazada(162)
     116         GOTO SendBadge(175)
     117 AutoCredencial:           
     118        RIGHT 1 characters of CREDENCIAL into OUT
     119         IF OUT is between 0 and 9 THEN GOTO TipoComida(60)
     120        RIGHT 1 characters of CREDENCIAL into MODORELOJ
     121         GOTO Restart(26)
     122 Supervisor:           
     123         MOVE UNO to SUPERVISA
     124         GOTO SendBadge(175)
     125 Operador:           
     126      DISPLAY w/CLR1  1 16 from "F1=CANCEL,F2=MAN"
     127      DISPLAY w/CLR2  41 8 from "F3=CORTE"
     128     READ KBD to IN  0 0 Default  on Timeout 1500 goto OpCancelada(270)
     129         ON F1 KEY GOTO Cancelar(137)
     130         ON F2 KEY GOTO PrepManual(134)
     131         ON F3 KEY GOTO Corte(141)
     132        SOUND 300, 1
     133         GOTO Restart(26)
     134 PrepManual:           
     135         MOVE "* MANUAL *" to LETRERO
     136         GOTO RegManual(250)
     137 Cancelar:           
     138         MOVE -1 to NUMCOMIDAS
     139         MOVE "* CANCELAR *" to LETRERO
     140         GOTO RegManual(250)
     141 Corte:           
     142 CLEAR SCREEN
     143         MOVE "* CORTE *" to MANUAL
     144      DISPLAY 1 16 from MANUAL
     145       APPEND CRLF to MANUAL
     146         SEND MANUAL to AUX port
     147         MOVE RECHAZADAS to LETRERO
     148       APPEND " : RECHAZADAS" to LETRERO
     149        GOSUB DlgAlerta(245)
     150       APPEND CRLF to LETRERO
     151         SEND LETRERO to AUX port
     152        PAUSE 4
     153         MOVE ACEPTADAS to LETRERO
     154       APPEND " : ACEPTADAS" to LETRERO
     155        GOSUB DlgAlerta(245)
     156       APPEND CRLF to LETRERO
     157         SEND LETRERO to AUX port
     158        PAUSE 4
     159         MOVE CERO to ACEPTADAS
     160         MOVE CERO to RECHAZADAS
     161         GOTO Restart(26)
     162 Rechazada:           
     163         LED 3 ON
     164 CONTROL LINE 3 OFF
     165        SOUND 3000, .15
     166        PAUSE .2
     167        SOUND 3000, .15
     168        PAUSE .2
     169        SOUND 3000, .15
     170        PAUSE .2
     171        SOUND 3000, .3
     172         LED 3 OFF
     173 CONTROL LINE 3 ON
     174         GOTO UpdateTime(35)
     175 SendBadge:           
     176 CLEAR SCREEN
     177      DISPLAY 1 6 from CREDENCIAL
     178      DISPLAY 1 1 from "#"
     179         MOVE TIPOFOOD to IN
     180         IF TIPOFOOD is greater than 0 THEN GOTO HayTipo(185)
     181         MOVE UNO to IN
     182      DISPLAY w/CLR2  41 5 from "Tipo:"
     183     READ KBD to IN  47 1 Numeric AutoExit Default  on Timeout 1000 goto OpCancelada(270)
     184         IF IN is not between 1 and 9 THEN GOTO SendBadge(175)
     185 HayTipo:           
     186         IF TIPOFOOD is not equal to 9 THEN GOTO HayComidas(190)
     187      DISPLAY 41 7 from "Precio:"
     188     READ KBD to NUMCOMIDAS  49 2 Numeric AutoExit Default Zerofill  on Timeout 1000 goto OpCancelada(270)
     189         IF NUMCOMIDAS is less than CERO THEN GOTO HayTipo(185)
     190 HayComidas:           
     191         MOVE CERO to STATUSVALIDA
     192         MOVE "#" to NET
     193       APPEND CREDENCIAL to NET
     194         MOVE "" to MANUAL
     195     TRANSFER to MANUAL 1 4 from DATE
     196       APPEND MANUAL to NET
     197     TRANSFER to ULTIMAHORA 1 4 from TIME
     198       APPEND ULTIMAHORA to NET
     199       APPEND NUMCOMIDAS to NET
     200       APPEND IN to NET
     201         MOVE IN to OUT
     202       MIDDLE 215 characters of NET into LASTRECORD
     203         SEND NET to host data QUEUE
     204 EsperaRespuesta:           
     205    READ HOST to IN  on Timeout 500 goto NoHuboRespuesta(213)
     206         IF IN starts with LASTRECORD THEN GOTO RespuestaOK(208)
     207         GOTO EsperaRespuesta(204)
     208 RespuestaOK:           
     209       MIDDLE 161 characters of IN into STATUSVALIDA
     210       MIDDLE 1740 characters of IN into RESPUESTA
     211         IF STATUSVALIDA equals 2 THEN GOTO AceptaComida(228)
     212         GOTO RechazaComida(217)
     213 NoHuboRespuesta:           
     214         MOVE UNO to STATUSVALIDA
     215         MOVE "NO RESPONDE" to RESPUESTA
     216         GOTO AceptaComida(228)
     217 RechazaComida:           
     218         MOVE 3 to STATUSVALIDA
     219         LED 3 ON
     220 CONTROL LINE 3 OFF
     221         MOVE RESPUESTA to LETRERO
     222        GOSUB DlgAlerta(245)
     223         ADD NUMCOMIDAS to RECHAZADAS
     224 CONTROL LINE 3 ON
     225        GOSUB IMPRIME(260)
     226         LED 3 OFF
     227         GOTO Restart(26)
     228 AceptaComida:           
     229         LED 2 ON
     230 CONTROL LINE 2 OFF
     231      DISPLAY w/CLR2  41 40 from RESPUESTA
     232         ADD NUMCOMIDAS to ACEPTADAS
     233        GOSUB IMPRIME(260)
     234        PAUSE .25
     235         LED 2 OFF
     236 CONTROL LINE 2 ON
     237         GOTO Restart(26)
     238 PausaDecimas:           
     239         IF LEN_PAUSA is less than 1 THEN GOTO FinPausa(243)
     240        PAUSE .1
     241     SUBTRACT 1 from LEN_PAUSA
     242         GOTO PausaDecimas(238)
     243 FinPausa:           
     244       RETURN from Gosub
     245 DlgAlerta:           
     246      DISPLAY w/CLR2  41 40 from LETRERO
     247        SOUND 300, 1
     248        PAUSE 1.5
     249       RETURN from Gosub
     250 RegManual:           
     251 CLEAR SCREEN
     252      DISPLAY 1 2 from "#:"
     253      DISPLAY 41 40 from LETRERO
     254         MOVE CERO to MANUAL
     255     READ KBD BADGE to MANUAL  3 6 Numeric AutoExit Zerofill  on Timeout 1500 goto OpCancelada(270)
     256         MOVE "" to CREDENCIAL
     257     TRANSFER to CREDENCIAL 1 6 from MANUAL
     258       APPEND "+" to CREDENCIAL
     259         GOTO SendBadge(175)
     260 Imprime:           
     261       APPEND HORA to MANUAL comma separated
     262       APPEND CREDENCIAL to MANUAL comma separated
     263       APPEND NUMCOMIDAS to MANUAL comma separated
     264       APPEND OUT to MANUAL comma separated
     265       APPEND " : " to MANUAL
     266       APPEND RESPUESTA to MANUAL
     267       APPEND CRLF to MANUAL
     268         SEND MANUAL to AUX port
     269       RETURN from Gosub
     270 OpCancelada:           
     271         MOVE "OP. CANCELADA" to LETRERO
     272        GOSUB DlgAlerta(245)
     273         GOTO Restart(26)
 
- Generation completed with no errors.
- Basic file CAFTURBO.BAS contains 1085 lines.
- LXB compilation.

NO ERRORS DETECTED
 
- CAFTURBO.LXE can be downloaded to LINX terminals
